simulation/qsim/digital_clock.msim.vcd
$comment
	File created using the following command:
		vcd file digital_clock.msim.vcd -direction
$end
$date
	Thu Dec 01 21:05:02 2022
$end
$version
	ModelSim Version 2020.1
$end
$timescale
	1ps
$end

$scope module digital_clock_vlg_vec_tst $end
$var reg 1 ! Add_1H_Switch $end
$var reg 1 " Add_1M_Switch $end
$var reg 1 # CLK $end
$var reg 1 $ Mode $end
$var reg 10 % MyCode [9:0] $end
$var reg 1 & S $end
$var reg 10 ' YourCode [9:0] $end
$var wire 1 ( H0 $end
$var wire 1 ) H1 $end
$var wire 1 * H2 $end
$var wire 1 + H3 $end
$var wire 1 , H4 $end
$var wire 1 - My_H0 [6] $end
$var wire 1 . My_H0 [5] $end
$var wire 1 / My_H0 [4] $end
$var wire 1 0 My_H0 [3] $end
$var wire 1 1 My_H0 [2] $end
$var wire 1 2 My_H0 [1] $end
$var wire 1 3 My_H0 [0] $end
$var wire 1 4 My_H1 [6] $end
$var wire 1 5 My_H1 [5] $end
$var wire 1 6 My_H1 [4] $end
$var wire 1 7 My_H1 [3] $end
$var wire 1 8 My_H1 [2] $end
$var wire 1 9 My_H1 [1] $end
$var wire 1 : My_H1 [0] $end
$var wire 1 ; My_M0 [6] $end
$var wire 1 < My_M0 [5] $end
$var wire 1 = My_M0 [4] $end
$var wire 1 > My_M0 [3] $end
$var wire 1 ? My_M0 [2] $end
$var wire 1 @ My_M0 [1] $end
$var wire 1 A My_M0 [0] $end
$var wire 1 B My_M1 [6] $end
$var wire 1 C My_M1 [5] $end
$var wire 1 D My_M1 [4] $end
$var wire 1 E My_M1 [3] $end
$var wire 1 F My_M1 [2] $end
$var wire 1 G My_M1 [1] $end
$var wire 1 H My_M1 [0] $end
$var wire 1 I My_S0 [6] $end
$var wire 1 J My_S0 [5] $end
$var wire 1 K My_S0 [4] $end
$var wire 1 L My_S0 [3] $end
$var wire 1 M My_S0 [2] $end
$var wire 1 N My_S0 [1] $end
$var wire 1 O My_S0 [0] $end
$var wire 1 P My_S1 [6] $end
$var wire 1 Q My_S1 [5] $end
$var wire 1 R My_S1 [4] $end
$var wire 1 S My_S1 [3] $end
$var wire 1 T My_S1 [2] $end
$var wire 1 U My_S1 [1] $end
$var wire 1 V My_S1 [0] $end
$var wire 1 W Your_H0 [6] $end
$var wire 1 X Your_H0 [5] $end
$var wire 1 Y Your_H0 [4] $end
$var wire 1 Z Your_H0 [3] $end
$var wire 1 [ Your_H0 [2] $end
$var wire 1 \ Your_H0 [1] $end
$var wire 1 ] Your_H0 [0] $end
$var wire 1 ^ Your_H1 [6] $end
$var wire 1 _ Your_H1 [5] $end
$var wire 1 ` Your_H1 [4] $end
$var wire 1 a Your_H1 [3] $end
$var wire 1 b Your_H1 [2] $end
$var wire 1 c Your_H1 [1] $end
$var wire 1 d Your_H1 [0] $end
$var wire 1 e Your_M0 [6] $end
$var wire 1 f Your_M0 [5] $end
$var wire 1 g Your_M0 [4] $end
$var wire 1 h Your_M0 [3] $end
$var wire 1 i Your_M0 [2] $end
$var wire 1 j Your_M0 [1] $end
$var wire 1 k Your_M0 [0] $end
$var wire 1 l Your_M1 [6] $end
$var wire 1 m Your_M1 [5] $end
$var wire 1 n Your_M1 [4] $end
$var wire 1 o Your_M1 [3] $end
$var wire 1 p Your_M1 [2] $end
$var wire 1 q Your_M1 [1] $end
$var wire 1 r Your_M1 [0] $end
$var wire 1 s Your_S0 [6] $end
$var wire 1 t Your_S0 [5] $end
$var wire 1 u Your_S0 [4] $end
$var wire 1 v Your_S0 [3] $end
$var wire 1 w Your_S0 [2] $end
$var wire 1 x Your_S0 [1] $end
$var wire 1 y Your_S0 [0] $end
$var wire 1 z Your_S1 [6] $end
$var wire 1 { Your_S1 [5] $end
$var wire 1 | Your_S1 [4] $end
$var wire 1 } Your_S1 [3] $end
$var wire 1 ~ Your_S1 [2] $end
$var wire 1 !! Your_S1 [1] $end
$var wire 1 "! Your_S1 [0] $end

$scope module i1 $end
$var wire 1 #! gnd $end
$var wire 1 $! vcc $end
$var wire 1 %! unknown $end
$var tri1 1 &! devclrn $end
$var tri1 1 '! devpor $end
$var tri1 1 (! devoe $end
$var wire 1 )! YourCode[9]~input_o $end
$var wire 1 *! YourCode[8]~input_o $end
$var wire 1 +! YourCode[7]~input_o $end
$var wire 1 ,! MyCode[9]~input_o $end
$var wire 1 -! MyCode[8]~input_o $end
$var wire 1 .! MyCode[7]~input_o $end
$var wire 1 /! ~QUARTUS_CREATED_GND~I_combout $end
$var wire 1 0! ~QUARTUS_CREATED_UNVM~~busy $end
$var wire 1 1! ~QUARTUS_CREATED_ADC1~~eoc $end
$var wire 1 2! H4~output_o $end
$var wire 1 3! H3~output_o $end
$var wire 1 4! H2~output_o $end
$var wire 1 5! H1~output_o $end
$var wire 1 6! H0~output_o $end
$var wire 1 7! My_H0[6]~output_o $end
$var wire 1 8! My_H0[5]~output_o $end
$var wire 1 9! My_H0[4]~output_o $end
$var wire 1 :! My_H0[3]~output_o $end
$var wire 1 ;! My_H0[2]~output_o $end
$var wire 1 <! My_H0[1]~output_o $end
$var wire 1 =! My_H0[0]~output_o $end
$var wire 1 >! My_H1[6]~output_o $end
$var wire 1 ?! My_H1[5]~output_o $end
$var wire 1 @! My_H1[4]~output_o $end
$var wire 1 A! My_H1[3]~output_o $end
$var wire 1 B! My_H1[2]~output_o $end
$var wire 1 C! My_H1[1]~output_o $end
$var wire 1 D! My_H1[0]~output_o $end
$var wire 1 E! My_M0[6]~output_o $end
$var wire 1 F! My_M0[5]~output_o $end
$var wire 1 G! My_M0[4]~output_o $end
$var wire 1 H! My_M0[3]~output_o $end
$var wire 1 I! My_M0[2]~output_o $end
$var wire 1 J! My_M0[1]~output_o $end
$var wire 1 K! My_M0[0]~output_o $end
$var wire 1 L! My_M1[6]~output_o $end
$var wire 1 M! My_M1[5]~output_o $end
$var wire 1 N! My_M1[4]~output_o $end
$var wire 1 O! My_M1[3]~output_o $end
$var wire 1 P! My_M1[2]~output_o $end
$var wire 1 Q! My_M1[1]~output_o $end
$var wire 1 R! My_M1[0]~output_o $end
$var wire 1 S! My_S0[6]~output_o $end
$var wire 1 T! My_S0[5]~output_o $end
$var wire 1 U! My_S0[4]~output_o $end
$var wire 1 V! My_S0[3]~output_o $end
$var wire 1 W! My_S0[2]~output_o $end
$var wire 1 X! My_S0[1]~output_o $end
$var wire 1 Y! My_S0[0]~output_o $end
$var wire 1 Z! My_S1[6]~output_o $end
$var wire 1 [! My_S1[5]~output_o $end
$var wire 1 \! My_S1[4]~output_o $end
$var wire 1 ]! My_S1[3]~output_o $end
$var wire 1 ^! My_S1[2]~output_o $end
$var wire 1 _! My_S1[1]~output_o $end
$var wire 1 `! My_S1[0]~output_o $end
$var wire 1 a! Your_H0[6]~output_o $end
$var wire 1 b! Your_H0[5]~output_o $end
$var wire 1 c! Your_H0[4]~output_o $end
$var wire 1 d! Your_H0[3]~output_o $end
$var wire 1 e! Your_H0[2]~output_o $end
$var wire 1 f! Your_H0[1]~output_o $end
$var wire 1 g! Your_H0[0]~output_o $end
$var wire 1 h! Your_H1[6]~output_o $end
$var wire 1 i! Your_H1[5]~output_o $end
$var wire 1 j! Your_H1[4]~output_o $end
$var wire 1 k! Your_H1[3]~output_o $end
$var wire 1 l! Your_H1[2]~output_o $end
$var wire 1 m! Your_H1[1]~output_o $end
$var wire 1 n! Your_H1[0]~output_o $end
$var wire 1 o! Your_M0[6]~output_o $end
$var wire 1 p! Your_M0[5]~output_o $end
$var wire 1 q! Your_M0[4]~output_o $end
$var wire 1 r! Your_M0[3]~output_o $end
$var wire 1 s! Your_M0[2]~output_o $end
$var wire 1 t! Your_M0[1]~output_o $end
$var wire 1 u! Your_M0[0]~output_o $end
$var wire 1 v! Your_M1[6]~output_o $end
$var wire 1 w! Your_M1[5]~output_o $end
$var wire 1 x! Your_M1[4]~output_o $end
$var wire 1 y! Your_M1[3]~output_o $end
$var wire 1 z! Your_M1[2]~output_o $end
$var wire 1 {! Your_M1[1]~output_o $end
$var wire 1 |! Your_M1[0]~output_o $end
$var wire 1 }! Your_S0[6]~output_o $end
$var wire 1 ~! Your_S0[5]~output_o $end
$var wire 1 !" Your_S0[4]~output_o $end
$var wire 1 "" Your_S0[3]~output_o $end
$var wire 1 #" Your_S0[2]~output_o $end
$var wire 1 $" Your_S0[1]~output_o $end
$var wire 1 %" Your_S0[0]~output_o $end
$var wire 1 &" Your_S1[6]~output_o $end
$var wire 1 '" Your_S1[5]~output_o $end
$var wire 1 (" Your_S1[4]~output_o $end
$var wire 1 )" Your_S1[3]~output_o $end
$var wire 1 *" Your_S1[2]~output_o $end
$var wire 1 +" Your_S1[1]~output_o $end
$var wire 1 ," Your_S1[0]~output_o $end
$var wire 1 -" MyCode[0]~input_o $end
$var wire 1 ." MyCode[5]~input_o $end
$var wire 1 /" MyCode[2]~input_o $end
$var wire 1 0" MyCode[4]~input_o $end
$var wire 1 1" inst18|inst34~0_combout $end
$var wire 1 2" MyCode[3]~input_o $end
$var wire 1 3" MyCode[6]~input_o $end
$var wire 1 4" MyCode[1]~input_o $end
$var wire 1 5" inst18|inst34~1_combout $end
$var wire 1 6" inst18|inst34~2_combout $end
$var wire 1 7" inst18|inst34~3_combout $end
$var wire 1 8" YourCode[1]~input_o $end
$var wire 1 9" YourCode[2]~input_o $end
$var wire 1 :" YourCode[3]~input_o $end
$var wire 1 ;" YourCode[0]~input_o $end
$var wire 1 <" YourCode[5]~input_o $end
$var wire 1 =" YourCode[4]~input_o $end
$var wire 1 >" inst19|inst34~0_combout $end
$var wire 1 ?" YourCode[6]~input_o $end
$var wire 1 @" inst19|inst34~1_combout $end
$var wire 1 A" inst19|inst34~2_combout $end
$var wire 1 B" inst19|inst34~3_combout $end
$var wire 1 C" inst18|inst26~0_combout $end
$var wire 1 D" inst18|inst48~0_combout $end
$var wire 1 E" inst18|inst26~1_combout $end
$var wire 1 F" inst19|inst48~0_combout $end
$var wire 1 G" inst19|inst26~0_combout $end
$var wire 1 H" inst19|inst26~1_combout $end
$var wire 1 I" inst17|instfa2|inst4~combout $end
$var wire 1 J" inst19|inst39~0_combout $end
$var wire 1 K" inst18|inst47~0_combout $end
$var wire 1 L" inst18|inst39~1_combout $end
$var wire 1 M" inst19|inst47~0_combout $end
$var wire 1 N" inst19|inst39~1_combout $end
$var wire 1 O" inst18|inst39~0_combout $end
$var wire 1 P" inst17|instfa3|inst~combout $end
$var wire 1 Q" inst17|instfa3|inst2~combout $end
$var wire 1 R" inst17|instfa3|inst4~combout $end
$var wire 1 S" inst19|inst47~1_combout $end
$var wire 1 T" inst19|inst47~2_combout $end
$var wire 1 U" inst19|inst47~3_combout $end
$var wire 1 V" inst19|inst47~4_combout $end
$var wire 1 W" inst18|inst47~1_combout $end
$var wire 1 X" inst18|inst47~2_combout $end
$var wire 1 Y" inst18|inst47~3_combout $end
$var wire 1 Z" inst18|inst47~4_combout $end
$var wire 1 [" inst17|instfa4|inst~combout $end
$var wire 1 \" S~input_o $end
$var wire 1 ]" S~inputclkctrl_outclk $end
$var wire 1 ^" inst16|inst2|inst17~1_combout $end
$var wire 1 _" inst16|inst2|inst12~1_combout $end
$var wire 1 `" inst16|inst2|inst7~1_combout $end
$var wire 1 a" inst16|inst2|inst7~2_combout $end
$var wire 1 b" inst16|inst2|inst2~1_combout $end
$var wire 1 c" inst16|inst4~0_combout $end
$var wire 1 d" inst17|instfa4|inst4~combout $end
$var wire 1 e" inst19|inst49~combout $end
$var wire 1 f" inst19|inst50~combout $end
$var wire 1 g" inst18|inst49~combout $end
$var wire 1 h" inst18|inst50~combout $end
$var wire 1 i" inst16|inst2|inst27~1_combout $end
$var wire 1 j" inst16|inst2|inst27~2_combout $end
$var wire 1 k" inst17|instfa52|inst1~0_combout $end
$var wire 1 l" inst16|inst2|inst22~1_combout $end
$var wire 1 m" CLK~input_o $end
$var wire 1 n" CLK~inputclkctrl_outclk $end
$var wire 1 o" Mode~input_o $end
$var wire 1 p" Add_1H_Switch~input_o $end
$var wire 1 q" inst23|inst~feeder_combout $end
$var wire 1 r" inst23|inst~q $end
$var wire 1 s" inst23|inst1~q $end
$var wire 1 t" inst23|inst6~0_combout $end
$var wire 1 u" in20|inst~0_combout $end
$var wire 1 v" in20|inst~q $end
$var wire 1 w" in20|inst29~0_combout $end
$var wire 1 x" in20|inst29~q $end
$var wire 1 y" in20|inst30~0_combout $end
$var wire 1 z" in20|inst30~q $end
$var wire 1 {" in20|inst39~0_combout $end
$var wire 1 |" in20|inst31~0_combout $end
$var wire 1 }" in20|inst31~q $end
$var wire 1 ~" inst45|inst6~0_combout $end
$var wire 1 !# inst45|inst6~q $end
$var wire 1 "# inst4~0_combout $end
$var wire 1 ## inst45|inst5~0_combout $end
$var wire 1 $# inst45|inst5~q $end
$var wire 1 %# inst45|inst~0_combout $end
$var wire 1 &# inst45|inst~q $end
$var wire 1 '# Add_1M_Switch~input_o $end
$var wire 1 (# Insten|inst~q $end
$var wire 1 )# Insten|inst1~q $end
$var wire 1 *# Insten|inst6~0_combout $end
$var wire 1 +# in21|inst~0_combout $end
$var wire 1 ,# in21|inst~q $end
$var wire 1 -# inst21~combout $end
$var wire 1 .# inst6~0_combout $end
$var wire 1 /# in21|inst29~0_combout $end
$var wire 1 0# in21|inst29~q $end
$var wire 1 1# in21|inst30~0_combout $end
$var wire 1 2# in21|inst30~q $end
$var wire 1 3# in21|inst39~0_combout $end
$var wire 1 4# in21|inst31~0_combout $end
$var wire 1 5# in21|inst31~q $end
$var wire 1 6# inst46|inst6~0_combout $end
$var wire 1 7# inst46|inst6~q $end
$var wire 1 8# inst5~0_combout $end
$var wire 1 9# inst46|inst5~0_combout $end
$var wire 1 :# inst46|inst5~q $end
$var wire 1 ;# inst46|inst~0_combout $end
$var wire 1 <# inst46|inst~q $end
$var wire 1 =# inst5~combout $end
$var wire 1 ># inst1|inst~0_combout $end
$var wire 1 ?# inst1|inst~q $end
$var wire 1 @# inst1|inst1~0_combout $end
$var wire 1 A# inst1|inst1~q $end
$var wire 1 B# inst1|inst2~1_combout $end
$var wire 1 C# inst1|inst2~2_combout $end
$var wire 1 D# inst1|inst2~q $end
$var wire 1 E# inst1|inst2~0_combout $end
$var wire 1 F# inst1|inst4~0_combout $end
$var wire 1 G# inst1|inst4~q $end
$var wire 1 H# inst1|inst3~0_combout $end
$var wire 1 I# inst1|inst3~q $end
$var wire 1 J# inst16|inst14|inst2~combout $end
$var wire 1 K# inst16|inst13|inst2~combout $end
$var wire 1 L# inst16|inst12|inst4~combout $end
$var wire 1 M# inst16|inst12|inst2~combout $end
$var wire 1 N# inst16|inst11|inst4~combout $end
$var wire 1 O# inst16|inst11|inst2~combout $end
$var wire 1 P# inst16|inst|inst3|inst4~combout $end
$var wire 1 Q# inst16|inst1~combout $end
$var wire 1 R# inst16|inst|inst|inst~combout $end
$var wire 1 S# inst16|inst3~combout $end
$var wire 1 T# inst16|inst13|inst4~combout $end
$var wire 1 U# inst16|inst6~combout $end
$var wire 1 V# inst16|inst14|inst4~combout $end
$var wire 1 W# inst15|inst11~0_combout $end
$var wire 1 X# inst16|inst9|inst~combout $end
$var wire 1 Y# inst16|inst8~combout $end
$var wire 1 Z# inst12|inst22~0_combout $end
$var wire 1 [# inst12|inst11~0_combout $end
$var wire 1 \# inst12|inst29~0_combout $end
$var wire 1 ]# inst16213|inst28~0_combout $end
$var wire 1 ^# inst16213|inst27~0_combout $end
$var wire 1 _# inst16213|inst26~0_combout $end
$var wire 1 `# inst16213|inst21~0_combout $end
$var wire 1 a# inst16213|inst18~combout $end
$var wire 1 b# inst16213|inst17~0_combout $end
$var wire 1 c# inst16213|inst14~0_combout $end
$var wire 1 d# inst12|inst12~0_combout $end
$var wire 1 e# inst7|inst28~0_combout $end
$var wire 1 f# inst7|inst27~0_combout $end
$var wire 1 g# inst7|inst26~0_combout $end
$var wire 1 h# inst7|inst21~0_combout $end
$var wire 1 i# inst7|inst18~combout $end
$var wire 1 j# inst7|inst17~0_combout $end
$var wire 1 k# inst7|inst14~0_combout $end
$var wire 1 l# inst8|inst28~0_combout $end
$var wire 1 m# inst8|inst27~0_combout $end
$var wire 1 n# inst8|inst26~0_combout $end
$var wire 1 o# inst8|inst21~0_combout $end
$var wire 1 p# inst13|inst18~combout $end
$var wire 1 q# inst8|inst17~0_combout $end
$var wire 1 r# inst8|inst14~0_combout $end
$var wire 1 s# inst2|inst28~0_combout $end
$var wire 1 t# inst2|inst27~0_combout $end
$var wire 1 u# inst2|inst26~0_combout $end
$var wire 1 v# inst2|inst21~0_combout $end
$var wire 1 w# inst2|inst18~combout $end
$var wire 1 x# inst2|inst17~0_combout $end
$var wire 1 y# inst2|inst14~0_combout $end
$var wire 1 z# inst3|inst28~0_combout $end
$var wire 1 {# inst3|inst27~0_combout $end
$var wire 1 |# inst3|inst26~0_combout $end
$var wire 1 }# inst3|inst21~0_combout $end
$var wire 1 ~# inst3|inst18~combout $end
$var wire 1 !$ inst3|inst17~0_combout $end
$var wire 1 "$ inst3|inst14~0_combout $end
$var wire 1 #$ inst15|inst11~2_combout $end
$var wire 1 $$ inst15|inst11~1_combout $end
$var wire 1 %$ inst16|inst4~combout $end
$var wire 1 &$ inst15|inst11~3_combout $end
$var wire 1 '$ inst15|inst29~0_combout $end
$var wire 1 ($ inst15|inst22~0_combout $end
$var wire 1 )$ inst16214|inst28~0_combout $end
$var wire 1 *$ inst16214|inst~2_combout $end
$var wire 1 +$ inst16214|inst28~1_combout $end
$var wire 1 ,$ inst16214|inst17~0_combout $end
$var wire 1 -$ inst16214|inst27~0_combout $end
$var wire 1 .$ inst16214|inst26~0_combout $end
$var wire 1 /$ inst16214|inst21~3_combout $end
$var wire 1 0$ inst16214|inst21~2_combout $end
$var wire 1 1$ inst16214|inst18~combout $end
$var wire 1 2$ inst16214|inst17~combout $end
$var wire 1 3$ inst16214|inst14~0_combout $end
$var wire 1 4$ inst16214|inst14~combout $end
$var wire 1 5$ inst15|inst12~0_combout $end
$var wire 1 6$ inst15|inst12~1_combout $end
$upscope $end
$upscope $end
$enddefinitions $end
#0
$dumpvars
0!
0"
0#
1$
b1010010 %
1&
b1 '
0(
1)
0*
1+
0,
13
12
11
10
1/
1.
0-
1:
19
18
17
16
15
04
1A
1@
1?
1>
1=
1<
0;
1H
1G
1F
1E
1D
1C
0B
1O
1N
1M
1L
1K
1J
0I
1V
1U
1T
1S
1R
1Q
0P
1]
1\
1[
1Z
1Y
1X
0W
0d
1c
1b
0a
0`
0_
0^
1k
1j
1i
1h
1g
1f
0e
1r
1q
1p
1o
1n
1m
0l
1y
1x
1w
1v
1u
1t
0s
1"!
1!!
1~
1}
1|
1{
0z
0#!
1$!
x%!
1&!
1'!
1(!
0)!
0*!
0+!
0,!
0-!
0.!
0/!
z0!
z1!
02!
13!
04!
15!
06!
07!
18!
19!
1:!
1;!
1<!
1=!
0>!
1?!
1@!
1A!
1B!
1C!
1D!
0E!
1F!
1G!
1H!
1I!
1J!
1K!
0L!
1M!
1N!
1O!
1P!
1Q!
1R!
0S!
1T!
1U!
1V!
1W!
1X!
1Y!
0Z!
1[!
1\!
1]!
1^!
1_!
1`!
0a!
1b!
1c!
1d!
1e!
1f!
1g!
0h!
0i!
0j!
0k!
1l!
1m!
0n!
0o!
1p!
1q!
1r!
1s!
1t!
1u!
0v!
1w!
1x!
1y!
1z!
1{!
1|!
0}!
1~!
1!"
1""
1#"
1$"
1%"
0&"
1'"
1("
1)"
1*"
1+"
1,"
0-"
0."
0/"
10"
11"
02"
13"
14"
05"
06"
07"
08"
09"
0:"
1;"
0<"
0="
0>"
0?"
1@"
1A"
1B"
1C"
0D"
1E"
1F"
0G"
1H"
1I"
0J"
0K"
0L"
0M"
0N"
0O"
0P"
0Q"
1R"
1S"
1T"
0U"
1V"
0W"
1X"
0Y"
1Z"
0["
1\"
1]"
1^"
1_"
1`"
0a"
1b"
1c"
1d"
0e"
1f"
0g"
0h"
1i"
0j"
1k"
0l"
0m"
0n"
1o"
0p"
0q"
0r"
0s"
0t"
1u"
0v"
0w"
0x"
0y"
0z"
0{"
0|"
0}"
0~"
0!#
0"#
0##
0$#
0%#
0&#
0'#
0(#
0)#
0*#
0+#
0,#
0-#
0.#
0/#
00#
01#
02#
03#
04#
05#
06#
07#
08#
09#
0:#
0;#
0<#
0=#
0>#
0?#
0@#
0A#
1B#
0C#
0D#
0E#
0F#
0G#
0H#
0I#
0J#
0K#
1L#
0M#
0N#
0O#
0P#
0Q#
0R#
1S#
1T#
0U#
0V#
0W#
1X#
0Y#
0Z#
0[#
0\#
0]#
1^#
1_#
1`#
1a#
1b#
1c#
0d#
0e#
1f#
1g#
1h#
1i#
1j#
1k#
0l#
1m#
1n#
1o#
1p#
1q#
1r#
0s#
1t#
1u#
1v#
1w#
1x#
1y#
0z#
1{#
1|#
1}#
1~#
1!$
1"$
0#$
0$$
1%$
0&$
0'$
0($
0)$
0*$
0+$
0,$
1-$
1.$
1/$
10$
11$
12$
03$
14$
05$
16$
$end
#10000
1#
1m"
1n"
1v"
0y#
0v#
0u#
0t#
1w"
0u"
0T!
0~!
0U!
0!"
0V!
0""
0Y!
0%"
0y
0O
0v
0L
0u
0K
0t
0J
#20000
0#
0m"
0n"
#30000
1#
1m"
1n"
1x"
0v"
1y#
0w#
1v#
1u#
1s#
1u"
1S!
1}!
1U!
1!"
1V!
1""
0W!
0#"
1Y!
1%"
1y
1O
0w
0M
1v
1L
1u
1K
1s
1I
#40000
0#
0m"
0n"
#50000
1#
1m"
1n"
1v"
1w#
0u#
1y"
0w"
0u"
0U!
0!"
1W!
1#"
1w
1M
0u
0K
#60000
0&
0#
0m"
0\"
0]"
0n"
0i"
#70000
b10010 %
b10 %
b0 %
b0 '
1#
1m"
03"
00"
04"
0;"
1n"
0C"
15"
0X"
1W"
1D"
1J"
1>"
16"
0Z"
1X"
1h"
1O"
1Q"
1P"
17"
1["
1Z"
0k"
0Q"
0P"
0["
1z"
0x"
0v"
0y#
0v#
1t#
1u"
1T!
1~!
0V!
0""
0Y!
0%"
0y
0O
0v
0L
1t
1J
#80000
0$
1"
1!
0#
0m"
1p"
1'#
0o"
0n"
1q"
0u"
#90000
1#
1m"
1n"
1(#
1r"
1*#
1t"
1-#
1+#
1>#
#100000
0#
0m"
0n"
#110000
1#
1m"
1n"
1?#
1,#
1)#
1s"
0/$
0X#
1.#
0*#
0t"
0c#
0`#
0_#
0^#
1@#
0>#
0k#
0h#
0g#
0f#
0+#
0F!
0p!
0G!
0q!
0H!
0r!
0K!
0u!
08!
09!
0:!
0=!
0.#
0-#
03
00
0/
0.
0k
0A
0h
0>
0g
0=
0f
0<
00$
1Y#
1/#
1+#
0@#
1>#
16!
0d!
0Z
1(
0/#
04$
0.$
0-$
0b!
0c!
0g!
0]
0Y
0X
#120000
0#
0m"
0n"
#130000
1#
1m"
1n"
#140000
0#
0m"
0n"
#150000
1#
1m"
1n"
#160000
0"
0!
0#
0m"
0p"
0'#
0n"
0q"
#170000
1#
1m"
1n"
0(#
0r"
#180000
0#
0m"
0n"
#190000
1#
1m"
1n"
0)#
0s"
#200000
0#
0m"
0n"
#210000
1#
1m"
1n"
#220000
0#
0m"
0n"
#230000
1#
1m"
1n"
#240000
1"
1!
0#
0m"
1p"
1'#
0n"
1q"
#250000
1#
1m"
1n"
1(#
1r"
1*#
1t"
1.#
1-#
0+#
1@#
0>#
1/#
#260000
0#
0m"
0n"
#270000
1#
1m"
1n"
1A#
0?#
10#
0,#
1)#
1s"
1\#
1V#
1J#
1/$
1X#
0.#
0*#
0t"
1c#
1`#
1_#
1^#
1>#
1k#
0i#
1h#
1g#
1e#
11#
0/#
1+#
1E!
1o!
1G!
1q!
1H!
1r!
0I!
0s!
1K!
1u!
18!
19!
1:!
1=!
15$
1W#
0T#
0-#
13
10
1/
1.
1k
1A
0i
0?
1h
1>
1g
1=
1e
1;
0a#
0^#
1]#
10$
0Y#
01#
1/#
0+#
0>#
06!
1d!
17!
08!
0;!
05!
06$
05$
1'$
0)
01
0.
1-
1Z
0(
1U#
14$
1.$
1-$
1b!
1c!
1g!
14!
1n!
1k!
1j!
1i!
16$
13$
1)$
1_
1`
1a
1d
1*
1]
1Y
1X
01$
0-$
0b!
0e!
0n!
0k!
0j!
0i!
0_
0`
0a
0d
0[
0X
1+$
1a!
1W
#280000
0#
0m"
0n"
#290000
1#
1m"
1n"
#300000
0#
0m"
0n"
#310000
1#
1m"
1n"
#320000
0"
0!
0#
0m"
0p"
0'#
0n"
0q"
#330000
1#
1m"
1n"
0(#
0r"
#340000
0#
0m"
0n"
#350000
1#
1m"
1n"
0)#
0s"
#360000
0#
0m"
0n"
#370000
1#
1m"
1n"
#380000
0#
0m"
0n"
#390000
1#
1m"
1n"
#400000
1!
0#
0m"
1p"
0n"
1q"
#410000
1#
1m"
1n"
1r"
1t"
1>#
#420000
0#
0m"
0n"
#430000
1#
1m"
1n"
1?#
1s"
0/$
0X#
1E#
0B#
0t"
1a#
0_#
0@#
0>#
09!
1;!
0E#
11
0/
1Y#
1@#
1>#
16!
1(
11$
0.$
0c!
1e!
1[
0Y
#440000
0#
0m"
0n"
#450000
1#
1m"
1n"
#460000
0#
0m"
0n"
#470000
1#
1m"
1n"
#480000
0!
0#
0m"
0p"
0n"
0q"
#490000
1#
1m"
1n"
0r"
#500000
0#
0m"
0n"
#510000
1#
1m"
1n"
0s"
#520000
0#
0m"
0n"
#530000
1#
1m"
1n"
#540000
0#
0m"
0n"
#550000
1#
1m"
1n"
#560000
1!
0#
0m"
1p"
0n"
1q"
#570000
1#
1m"
1n"
1r"
1t"
1E#
1C#
0@#
0>#
#580000
0#
0m"
0n"
#590000
1#
1m"
1n"
1D#
0A#
0?#
1s"
0\#
1Z#
1T#
1K#
0V#
0J#
0E#
1B#
1/$
1X#
0t"
1H#
0C#
0a#
1_#
1>#
19!
0;!
0'$
1$$
0L#
0W#
0T#
0K#
01
1/
0c#
1a#
0`#
0_#
1^#
0U#
0H#
1C#
0Y#
0>#
06!
04!
18!
09!
0:!
1;!
0=!
15!
03$
0)$
1&$
1R#
1P#
0$$
1($
1L#
1)
03
11
00
0/
1.
0*
0(
1.$
1-$
1U#
14!
1b!
1c!
06$
0($
1'$
0&$
0/$
1,$
1*$
0R#
0P#
1Y
1X
1*
0S#
1Q#
0.$
0c!
12!
03!
1n!
1k!
1j!
1i!
13$
1/$
0,$
0*$
1)$
16$
1($
0'$
1_
1`
1a
1d
0+
1,
0Y
01$
1.$
0+$
00$
1S#
0Q#
02!
13!
0d!
0a!
1c!
0e!
0n!
0k!
0j!
0i!
03$
0/$
1,$
1*$
0)$
0_
0`
0a
0d
0[
1Y
0W
0Z
1+
0,
10$
1+$
11$
0.$
0c!
1e!
1a!
1d!
1Z
1W
1[
0Y
04$
00$
0d!
0g!
0]
0Z
#600000
0#
0m"
0n"
#610000
1#
1m"
1n"
#620000
0#
0m"
0n"
#630000
1#
1m"
1n"
#640000
0!
0#
0m"
0p"
0n"
0q"
#650000
1#
1m"
1n"
0r"
#660000
0#
0m"
0n"
#670000
1#
1m"
1n"
0s"
#680000
0#
0m"
0n"
#690000
1#
1m"
1n"
#700000
0#
0m"
0n"
#710000
1#
1m"
1n"
#720000
0#
0m"
0n"
#730000
1#
1m"
1n"
#740000
0#
0m"
0n"
#750000
1#
1m"
1n"
#760000
0#
0m"
0n"
#770000
1#
1m"
1n"
#780000
0#
0m"
0n"
#790000
1#
1m"
1n"
#800000
0#
0m"
0n"
#810000
1#
1m"
1n"
#820000
0#
0m"
0n"
#830000
1#
1m"
1n"
#840000
0#
0m"
0n"
#850000
1#
1m"
1n"
#860000
0#
0m"
0n"
#870000
1#
1m"
1n"
#880000
0#
0m"
0n"
#890000
1#
1m"
1n"
#900000
0#
0m"
0n"
#910000
1#
1m"
1n"
#920000
0#
0m"
0n"
#930000
1#
1m"
1n"
#940000
0#
0m"
0n"
#950000
1#
1m"
1n"
#960000
0#
0m"
0n"
#970000
1#
1m"
1n"
#980000
0#
0m"
0n"
#990000
1#
1m"
1n"
#1000000
0#
0m"
0n"
#1010000
1#
1m"
1n"
#1020000
0#
0m"
0n"
#1030000
1#
1m"
1n"
#1040000
0#
0m"
0n"
#1050000
1#
1m"
1n"
#1060000
0#
0m"
0n"
#1070000
1#
1m"
1n"
#1080000
0#
0m"
0n"
#1090000
1#
1m"
1n"
#1100000
0#
0m"
0n"
#1110000
1#
1m"
1n"
#1120000
1$
0#
0m"
1o"
0n"
1u"
#1130000
1#
1m"
1n"
1v"
1y#
0x#
1v#
1w"
0u"
1V!
1""
0X!
0$"
1Y!
1%"
1y
1O
0x
0N
1v
1L
#1140000
0#
0m"
0n"
#1150000
1#
1m"
1n"
1x"
0v"
1{"
1u#
1u"
1U!
1!"
1u
1K
#1160000
0#
0m"
0n"
#1170000
1#
1m"
1n"
1v"
1x#
0v#
0u#
0t#
0s#
1|"
0y"
0w"
0u"
0S!
0}!
0T!
0~!
0U!
0!"
0V!
0""
1X!
1$"
1x
1N
0v
0L
0u
0K
0t
0J
0s
0I
#1180000
0#
0m"
0n"
#1190000
1#
1m"
1n"
1}"
0z"
0x"
0v"
1v#
1t#
1s#
1u#
1u"
1U!
1!"
1S!
1}!
1T!
1~!
1V!
1""
1v
1L
1t
1J
1s
1I
1u
1K
#1200000
0#
0m"
0n"
#1210000
1#
1m"
1n"
1v"
0u#
1~"
0|"
0u"
0U!
0!"
0u
0K
#1220000
0#
0m"
0n"
