simulation/qsim/digital_clock.msim.vcd
$comment
	File created using the following command:
		vcd file digital_clock.msim.vcd -direction
$end
$date
	Thu Dec 01 23:48:01 2022
$end
$version
	ModelSim Version 2020.1
$end
$timescale
	1ps
$end

$scope module digital_clock_vlg_vec_tst $end
$var reg 1 ! Add_1H_Switch $end
$var reg 1 " Add_1M_Switch $end
$var reg 1 # CLK $end
$var reg 1 $ Mode $end
$var reg 1 % MyDial_0 $end
$var reg 1 & MyDial_1 $end
$var reg 1 ' MyDial_2 $end
$var reg 1 ( MyDial_3 $end
$var reg 1 ) MyDial_4 $end
$var reg 1 * MyDial_5 $end
$var reg 1 + MyDial_6 $end
$var reg 1 , MyDial_7 $end
$var reg 1 - MyDial_8 $end
$var reg 1 . MyDial_9 $end
$var reg 1 / Send $end
$var reg 1 0 U_Dial_0 $end
$var reg 1 1 U_Dial_1 $end
$var reg 1 2 U_Dial_2 $end
$var reg 1 3 U_Dial_3 $end
$var reg 1 4 U_Dial_4 $end
$var reg 1 5 U_Dial_5 $end
$var reg 1 6 U_Dial_6 $end
$var reg 1 7 U_Dial_7 $end
$var reg 1 8 U_Dial_8 $end
$var reg 1 9 U_Dial_9 $end
$var reg 1 : Zero $end
$var wire 1 ; H0 $end
$var wire 1 < H1 $end
$var wire 1 = H2 $end
$var wire 1 > H3 $end
$var wire 1 ? H4 $end
$var wire 1 @ My_H0 [6] $end
$var wire 1 A My_H0 [5] $end
$var wire 1 B My_H0 [4] $end
$var wire 1 C My_H0 [3] $end
$var wire 1 D My_H0 [2] $end
$var wire 1 E My_H0 [1] $end
$var wire 1 F My_H0 [0] $end
$var wire 1 G My_H1 [6] $end
$var wire 1 H My_H1 [5] $end
$var wire 1 I My_H1 [4] $end
$var wire 1 J My_H1 [3] $end
$var wire 1 K My_H1 [2] $end
$var wire 1 L My_H1 [1] $end
$var wire 1 M My_H1 [0] $end
$var wire 1 N My_M0 [6] $end
$var wire 1 O My_M0 [5] $end
$var wire 1 P My_M0 [4] $end
$var wire 1 Q My_M0 [3] $end
$var wire 1 R My_M0 [2] $end
$var wire 1 S My_M0 [1] $end
$var wire 1 T My_M0 [0] $end
$var wire 1 U My_M1 [6] $end
$var wire 1 V My_M1 [5] $end
$var wire 1 W My_M1 [4] $end
$var wire 1 X My_M1 [3] $end
$var wire 1 Y My_M1 [2] $end
$var wire 1 Z My_M1 [1] $end
$var wire 1 [ My_M1 [0] $end
$var wire 1 \ My_S0 [6] $end
$var wire 1 ] My_S0 [5] $end
$var wire 1 ^ My_S0 [4] $end
$var wire 1 _ My_S0 [3] $end
$var wire 1 ` My_S0 [2] $end
$var wire 1 a My_S0 [1] $end
$var wire 1 b My_S0 [0] $end
$var wire 1 c My_S1 [6] $end
$var wire 1 d My_S1 [5] $end
$var wire 1 e My_S1 [4] $end
$var wire 1 f My_S1 [3] $end
$var wire 1 g My_S1 [2] $end
$var wire 1 h My_S1 [1] $end
$var wire 1 i My_S1 [0] $end
$var wire 1 j Your_H0 [6] $end
$var wire 1 k Your_H0 [5] $end
$var wire 1 l Your_H0 [4] $end
$var wire 1 m Your_H0 [3] $end
$var wire 1 n Your_H0 [2] $end
$var wire 1 o Your_H0 [1] $end
$var wire 1 p Your_H0 [0] $end
$var wire 1 q Your_H1 [6] $end
$var wire 1 r Your_H1 [5] $end
$var wire 1 s Your_H1 [4] $end
$var wire 1 t Your_H1 [3] $end
$var wire 1 u Your_H1 [2] $end
$var wire 1 v Your_H1 [1] $end
$var wire 1 w Your_H1 [0] $end
$var wire 1 x Your_M0 [6] $end
$var wire 1 y Your_M0 [5] $end
$var wire 1 z Your_M0 [4] $end
$var wire 1 { Your_M0 [3] $end
$var wire 1 | Your_M0 [2] $end
$var wire 1 } Your_M0 [1] $end
$var wire 1 ~ Your_M0 [0] $end
$var wire 1 !! Your_M1 [6] $end
$var wire 1 "! Your_M1 [5] $end
$var wire 1 #! Your_M1 [4] $end
$var wire 1 $! Your_M1 [3] $end
$var wire 1 %! Your_M1 [2] $end
$var wire 1 &! Your_M1 [1] $end
$var wire 1 '! Your_M1 [0] $end
$var wire 1 (! Your_S0 [6] $end
$var wire 1 )! Your_S0 [5] $end
$var wire 1 *! Your_S0 [4] $end
$var wire 1 +! Your_S0 [3] $end
$var wire 1 ,! Your_S0 [2] $end
$var wire 1 -! Your_S0 [1] $end
$var wire 1 .! Your_S0 [0] $end
$var wire 1 /! Your_S1 [6] $end
$var wire 1 0! Your_S1 [5] $end
$var wire 1 1! Your_S1 [4] $end
$var wire 1 2! Your_S1 [3] $end
$var wire 1 3! Your_S1 [2] $end
$var wire 1 4! Your_S1 [1] $end
$var wire 1 5! Your_S1 [0] $end

$scope module i1 $end
$var wire 1 6! gnd $end
$var wire 1 7! vcc $end
$var wire 1 8! unknown $end
$var tri1 1 9! devclrn $end
$var tri1 1 :! devpor $end
$var tri1 1 ;! devoe $end
$var wire 1 <! ~QUARTUS_CREATED_GND~I_combout $end
$var wire 1 =! ~QUARTUS_CREATED_UNVM~~busy $end
$var wire 1 >! ~QUARTUS_CREATED_ADC1~~eoc $end
$var wire 1 ?! H4~output_o $end
$var wire 1 @! H3~output_o $end
$var wire 1 A! H2~output_o $end
$var wire 1 B! H1~output_o $end
$var wire 1 C! H0~output_o $end
$var wire 1 D! My_H0[6]~output_o $end
$var wire 1 E! My_H0[5]~output_o $end
$var wire 1 F! My_H0[4]~output_o $end
$var wire 1 G! My_H0[3]~output_o $end
$var wire 1 H! My_H0[2]~output_o $end
$var wire 1 I! My_H0[1]~output_o $end
$var wire 1 J! My_H0[0]~output_o $end
$var wire 1 K! My_H1[6]~output_o $end
$var wire 1 L! My_H1[5]~output_o $end
$var wire 1 M! My_H1[4]~output_o $end
$var wire 1 N! My_H1[3]~output_o $end
$var wire 1 O! My_H1[2]~output_o $end
$var wire 1 P! My_H1[1]~output_o $end
$var wire 1 Q! My_H1[0]~output_o $end
$var wire 1 R! My_M0[6]~output_o $end
$var wire 1 S! My_M0[5]~output_o $end
$var wire 1 T! My_M0[4]~output_o $end
$var wire 1 U! My_M0[3]~output_o $end
$var wire 1 V! My_M0[2]~output_o $end
$var wire 1 W! My_M0[1]~output_o $end
$var wire 1 X! My_M0[0]~output_o $end
$var wire 1 Y! My_M1[6]~output_o $end
$var wire 1 Z! My_M1[5]~output_o $end
$var wire 1 [! My_M1[4]~output_o $end
$var wire 1 \! My_M1[3]~output_o $end
$var wire 1 ]! My_M1[2]~output_o $end
$var wire 1 ^! My_M1[1]~output_o $end
$var wire 1 _! My_M1[0]~output_o $end
$var wire 1 `! My_S0[6]~output_o $end
$var wire 1 a! My_S0[5]~output_o $end
$var wire 1 b! My_S0[4]~output_o $end
$var wire 1 c! My_S0[3]~output_o $end
$var wire 1 d! My_S0[2]~output_o $end
$var wire 1 e! My_S0[1]~output_o $end
$var wire 1 f! My_S0[0]~output_o $end
$var wire 1 g! My_S1[6]~output_o $end
$var wire 1 h! My_S1[5]~output_o $end
$var wire 1 i! My_S1[4]~output_o $end
$var wire 1 j! My_S1[3]~output_o $end
$var wire 1 k! My_S1[2]~output_o $end
$var wire 1 l! My_S1[1]~output_o $end
$var wire 1 m! My_S1[0]~output_o $end
$var wire 1 n! Your_H0[6]~output_o $end
$var wire 1 o! Your_H0[5]~output_o $end
$var wire 1 p! Your_H0[4]~output_o $end
$var wire 1 q! Your_H0[3]~output_o $end
$var wire 1 r! Your_H0[2]~output_o $end
$var wire 1 s! Your_H0[1]~output_o $end
$var wire 1 t! Your_H0[0]~output_o $end
$var wire 1 u! Your_H1[6]~output_o $end
$var wire 1 v! Your_H1[5]~output_o $end
$var wire 1 w! Your_H1[4]~output_o $end
$var wire 1 x! Your_H1[3]~output_o $end
$var wire 1 y! Your_H1[2]~output_o $end
$var wire 1 z! Your_H1[1]~output_o $end
$var wire 1 {! Your_H1[0]~output_o $end
$var wire 1 |! Your_M0[6]~output_o $end
$var wire 1 }! Your_M0[5]~output_o $end
$var wire 1 ~! Your_M0[4]~output_o $end
$var wire 1 !" Your_M0[3]~output_o $end
$var wire 1 "" Your_M0[2]~output_o $end
$var wire 1 #" Your_M0[1]~output_o $end
$var wire 1 $" Your_M0[0]~output_o $end
$var wire 1 %" Your_M1[6]~output_o $end
$var wire 1 &" Your_M1[5]~output_o $end
$var wire 1 '" Your_M1[4]~output_o $end
$var wire 1 (" Your_M1[3]~output_o $end
$var wire 1 )" Your_M1[2]~output_o $end
$var wire 1 *" Your_M1[1]~output_o $end
$var wire 1 +" Your_M1[0]~output_o $end
$var wire 1 ," Your_S0[6]~output_o $end
$var wire 1 -" Your_S0[5]~output_o $end
$var wire 1 ." Your_S0[4]~output_o $end
$var wire 1 /" Your_S0[3]~output_o $end
$var wire 1 0" Your_S0[2]~output_o $end
$var wire 1 1" Your_S0[1]~output_o $end
$var wire 1 2" Your_S0[0]~output_o $end
$var wire 1 3" Your_S1[6]~output_o $end
$var wire 1 4" Your_S1[5]~output_o $end
$var wire 1 5" Your_S1[4]~output_o $end
$var wire 1 6" Your_S1[3]~output_o $end
$var wire 1 7" Your_S1[2]~output_o $end
$var wire 1 8" Your_S1[1]~output_o $end
$var wire 1 9" Your_S1[0]~output_o $end
$var wire 1 :" Zero~input_o $end
$var wire 1 ;" Send~input_o $end
$var wire 1 <" CLK~input_o $end
$var wire 1 =" U_Dial_8~input_o $end
$var wire 1 >" U_Dial_6~input_o $end
$var wire 1 ?" U_Dial_2~input_o $end
$var wire 1 @" U_Dial_4~input_o $end
$var wire 1 A" inst27|inst30~1_combout $end
$var wire 1 B" U_Dial_1~input_o $end
$var wire 1 C" U_Dial_0~input_o $end
$var wire 1 D" U_Dial_3~input_o $end
$var wire 1 E" U_Dial_7~input_o $end
$var wire 1 F" U_Dial_9~input_o $end
$var wire 1 G" U_Dial_5~input_o $end
$var wire 1 H" inst27|inst30~0_combout $end
$var wire 1 I" inst27|inst30~2_combout $end
$var wire 1 J" inst27|inst26|inst~q $end
$var wire 1 K" inst27|inst26|inst1~q $end
$var wire 1 L" inst27|inst26|inst6~combout $end
$var wire 1 M" inst27|inst26|inst6~clkctrl_outclk $end
$var wire 1 N" inst27|indfsst|inst3~0_combout $end
$var wire 1 O" inst27|indfsst|inst4~0_combout $end
$var wire 1 P" inst27|inst16|inst~combout $end
$var wire 1 Q" inst27|D0~q $end
$var wire 1 R" inst27|inst17|inst1~combout $end
$var wire 1 S" inst27|D1~q $end
$var wire 1 T" inst27|inst17|inst2~0_combout $end
$var wire 1 U" inst27|inst17|inst2~1_combout $end
$var wire 1 V" inst27|inst18|inst1~combout $end
$var wire 1 W" inst27|D2~q $end
$var wire 1 X" inst27|inassfaafst|inst2~1_combout $end
$var wire 1 Y" inst27|inst18|inst2~0_combout $end
$var wire 1 Z" inst27|inassfaafst|inst1~combout $end
$var wire 1 [" inst27|inst19|inst1~combout $end
$var wire 1 \" inst27|D3~q $end
$var wire 1 ]" inst27|inassfaafst|inst2~0_combout $end
$var wire 1 ^" inst27|inst14|inst1~combout $end
$var wire 1 _" inst27|inst19|inst2~0_combout $end
$var wire 1 `" inst27|inst20|inst~combout $end
$var wire 1 a" inst27|D4~q $end
$var wire 1 b" inst27|inst14|inst2~0_combout $end
$var wire 1 c" inst27|inst15|inst1~0_combout $end
$var wire 1 d" inst27|inst21|inst~combout $end
$var wire 1 e" inst27|D5~q $end
$var wire 1 f" inst19|inst48~0_combout $end
$var wire 1 g" inst19|inst49~combout $end
$var wire 1 h" inst27|inst22|inst~0_combout $end
$var wire 1 i" inst27|inst22|inst~1_combout $end
$var wire 1 j" inst27|inst22|inst~combout $end
$var wire 1 k" inst27|D6~q $end
$var wire 1 l" inst19|inst50~combout $end
$var wire 1 m" Mode~input_o $end
$var wire 1 n" MyDial_1~input_o $end
$var wire 1 o" MyDial_8~input_o $end
$var wire 1 p" MyDial_4~input_o $end
$var wire 1 q" MyDial_2~input_o $end
$var wire 1 r" MyDial_6~input_o $end
$var wire 1 s" inst26|inst30~1_combout $end
$var wire 1 t" MyDial_0~input_o $end
$var wire 1 u" MyDial_9~input_o $end
$var wire 1 v" MyDial_7~input_o $end
$var wire 1 w" MyDial_3~input_o $end
$var wire 1 x" MyDial_5~input_o $end
$var wire 1 y" inst26|inst30~0_combout $end
$var wire 1 z" inst26|inst30~2_combout $end
$var wire 1 {" inst26|inst26|inst~feeder_combout $end
$var wire 1 |" inst26|inst26|inst~q $end
$var wire 1 }" inst26|inst26|inst1~feeder_combout $end
$var wire 1 ~" inst26|inst26|inst1~q $end
$var wire 1 !# inst26|inst26|inst6~combout $end
$var wire 1 "# inst26|inst26|inst6~clkctrl_outclk $end
$var wire 1 ## inst26|indfsst|inst4~0_combout $end
$var wire 1 $# inst26|inst16|inst~combout $end
$var wire 1 %# inst26|D0~feeder_combout $end
$var wire 1 &# inst26|D0~q $end
$var wire 1 '# inst26|inst17|inst1~combout $end
$var wire 1 (# inst26|D1~q $end
$var wire 1 )# inst26|indfsst|inst3~0_combout $end
$var wire 1 *# inst26|inst17|inst2~1_combout $end
$var wire 1 +# inst26|inst17|inst2~0_combout $end
$var wire 1 ,# inst26|inst18|inst2~0_combout $end
$var wire 1 -# inst26|inst18|inst1~combout $end
$var wire 1 .# inst26|D2~q $end
$var wire 1 /# inst26|inassfaafst|inst1~combout $end
$var wire 1 0# inst26|inst19|inst1~combout $end
$var wire 1 1# inst26|D3~q $end
$var wire 1 2# inst26|inassfaafst|inst2~1_combout $end
$var wire 1 3# inst26|inassfaafst|inst2~0_combout $end
$var wire 1 4# inst26|inst14|inst1~combout $end
$var wire 1 5# inst26|inst19|inst2~0_combout $end
$var wire 1 6# inst26|inst20|inst~combout $end
$var wire 1 7# inst26|D4~q $end
$var wire 1 8# inst26|inst14|inst2~0_combout $end
$var wire 1 9# inst26|inst15|inst1~0_combout $end
$var wire 1 :# inst26|inst21|inst~combout $end
$var wire 1 ;# inst26|D5~q $end
$var wire 1 <# inst26|inst15|inst2~0_combout $end
$var wire 1 =# inst18|inst47~2_combout $end
$var wire 1 ># inst26|inst22|inst~0_combout $end
$var wire 1 ?# inst26|inst22|inst~1_combout $end
$var wire 1 @# inst26|inst22|inst~combout $end
$var wire 1 A# inst26|D6~q $end
$var wire 1 B# inst18|inst47~0_combout $end
$var wire 1 C# inst18|inst47~1_combout $end
$var wire 1 D# inst18|inst47~3_combout $end
$var wire 1 E# inst19|inst47~0_combout $end
$var wire 1 F# inst19|inst47~1_combout $end
$var wire 1 G# inst27|inst15|inst2~0_combout $end
$var wire 1 H# inst19|inst47~2_combout $end
$var wire 1 I# inst19|inst47~3_combout $end
$var wire 1 J# inst19|inst39~0_combout $end
$var wire 1 K# inst19|inst39~1_combout $end
$var wire 1 L# inst18|inst39~1_combout $end
$var wire 1 M# inst18|inst48~0_combout $end
$var wire 1 N# inst18|inst39~0_combout $end
$var wire 1 O# inst17|instfa3|inst~combout $end
$var wire 1 P# inst17|instfa3|inst2~combout $end
$var wire 1 Q# inst18|inst26~0_combout $end
$var wire 1 R# inst18|inst26~1_combout $end
$var wire 1 S# inst19|inst26~0_combout $end
$var wire 1 T# inst19|inst26~1_combout $end
$var wire 1 U# inst19|inst34~0_combout $end
$var wire 1 V# inst19|inst34~1_combout $end
$var wire 1 W# inst19|inst34~2_combout $end
$var wire 1 X# inst19|inst34~3_combout $end
$var wire 1 Y# inst18|inst34~1_combout $end
$var wire 1 Z# inst18|inst34~0_combout $end
$var wire 1 [# inst18|inst34~2_combout $end
$var wire 1 \# inst18|inst34~3_combout $end
$var wire 1 ]# inst17|instfa2|inst4~combout $end
$var wire 1 ^# inst17|instfa3|inst4~combout $end
$var wire 1 _# inst17|instfa4|inst4~combout $end
$var wire 1 `# inst18|inst49~combout $end
$var wire 1 a# inst18|inst50~combout $end
$var wire 1 b# inst16|inst2|inst27~1_combout $end
$var wire 1 c# inst16|inst2|inst27~2_combout $end
$var wire 1 d# inst16|inst10|inst4~0_combout $end
$var wire 1 e# CLK~inputclkctrl_outclk $end
$var wire 1 f# Add_1M_Switch~input_o $end
$var wire 1 g# Insten|inst~q $end
$var wire 1 h# Insten|inst1~q $end
$var wire 1 i# Insten|inst6~0_combout $end
$var wire 1 j# in20|inst~0_combout $end
$var wire 1 k# in20|inst~q $end
$var wire 1 l# in20|inst29~0_combout $end
$var wire 1 m# in20|inst29~feeder_combout $end
$var wire 1 n# in20|inst29~q $end
$var wire 1 o# in20|inst30~0_combout $end
$var wire 1 p# in20|inst30~q $end
$var wire 1 q# in20|inst39~0_combout $end
$var wire 1 r# in20|inst31~0_combout $end
$var wire 1 s# in20|inst31~q $end
$var wire 1 t# inst45|inst6~0_combout $end
$var wire 1 u# inst45|inst6~q $end
$var wire 1 v# inst4~0_combout $end
$var wire 1 w# inst45|inst5~0_combout $end
$var wire 1 x# inst45|inst5~q $end
$var wire 1 y# inst45|inst~0_combout $end
$var wire 1 z# inst45|inst~q $end
$var wire 1 {# in21|inst~0_combout $end
$var wire 1 |# in21|inst~q $end
$var wire 1 }# inst6~0_combout $end
$var wire 1 ~# in21|inst29~0_combout $end
$var wire 1 !$ in21|inst29~q $end
$var wire 1 "$ in21|inst30~0_combout $end
$var wire 1 #$ in21|inst30~q $end
$var wire 1 $$ in21|inst39~0_combout $end
$var wire 1 %$ inst21~combout $end
$var wire 1 &$ in21|inst31~0_combout $end
$var wire 1 '$ in21|inst31~q $end
$var wire 1 ($ inst46|inst6~0_combout $end
$var wire 1 )$ inst46|inst6~q $end
$var wire 1 *$ inst5~0_combout $end
$var wire 1 +$ inst46|inst5~0_combout $end
$var wire 1 ,$ inst46|inst5~q $end
$var wire 1 -$ inst46|inst~0_combout $end
$var wire 1 .$ inst46|inst~q $end
$var wire 1 /$ inst5~combout $end
$var wire 1 0$ Add_1H_Switch~input_o $end
$var wire 1 1$ inst23|inst~q $end
$var wire 1 2$ inst23|inst1~q $end
$var wire 1 3$ inst23|inst6~0_combout $end
$var wire 1 4$ inst1|inst~0_combout $end
$var wire 1 5$ inst1|inst~q $end
$var wire 1 6$ inst1|inst1~0_combout $end
$var wire 1 7$ inst1|inst1~q $end
$var wire 1 8$ inst1|inst7~0_combout $end
$var wire 1 9$ inst1|inst2~0_combout $end
$var wire 1 :$ inst1|inst2~q $end
$var wire 1 ;$ inst1|inst3~0_combout $end
$var wire 1 <$ inst1|inst3~q $end
$var wire 1 =$ inst1|inst4~0_combout $end
$var wire 1 >$ inst1|inst4~q $end
$var wire 1 ?$ Send~inputclkctrl_outclk $end
$var wire 1 @$ inst16|inst2|inst12~1_combout $end
$var wire 1 A$ inst16|inst2|inst7~1_combout $end
$var wire 1 B$ inst16|inst2|inst7~2_combout $end
$var wire 1 C$ inst16|inst2|inst2~1_combout $end
$var wire 1 D$ inst16|inst14|inst2~combout $end
$var wire 1 E$ inst16|inst13|inst2~combout $end
$var wire 1 F$ inst17|instfa4|inst~combout $end
$var wire 1 G$ inst16|inst2|inst17~1_combout $end
$var wire 1 H$ inst16|inst12|inst2~combout $end
$var wire 1 I$ inst17|instfa52|inst1~0_combout $end
$var wire 1 J$ inst16|inst2|inst22~1_combout $end
$var wire 1 K$ inst16|inst10|inst4~combout $end
$var wire 1 L$ inst16|inst12|inst4~combout $end
$var wire 1 M$ inst16|inst11|inst4~combout $end
$var wire 1 N$ inst16|inst|inst3|inst4~combout $end
$var wire 1 O$ inst16|inst4~0_combout $end
$var wire 1 P$ inst16|inst1~combout $end
$var wire 1 Q$ inst16|inst|inst|inst~combout $end
$var wire 1 R$ inst16|inst3~combout $end
$var wire 1 S$ inst16|inst13|inst4~combout $end
$var wire 1 T$ inst16|inst6~combout $end
$var wire 1 U$ inst16|inst14|inst4~combout $end
$var wire 1 V$ inst15|inst11~0_combout $end
$var wire 1 W$ inst16|inst9|inst~combout $end
$var wire 1 X$ inst16|inst8~combout $end
$var wire 1 Y$ inst12|inst11~0_combout $end
$var wire 1 Z$ inst12|inst22~0_combout $end
$var wire 1 [$ inst12|inst29~0_combout $end
$var wire 1 \$ inst16213|inst28~0_combout $end
$var wire 1 ]$ inst16213|inst27~0_combout $end
$var wire 1 ^$ inst16213|inst26~0_combout $end
$var wire 1 _$ inst16213|inst21~0_combout $end
$var wire 1 `$ inst16213|inst18~combout $end
$var wire 1 a$ inst16213|inst17~0_combout $end
$var wire 1 b$ inst16213|inst14~0_combout $end
$var wire 1 c$ inst12|inst12~0_combout $end
$var wire 1 d$ inst1762162|inst27~combout $end
$var wire 1 e$ inst1762162|inst17~combout $end
$var wire 1 f$ inst7|inst28~0_combout $end
$var wire 1 g$ inst7|inst27~0_combout $end
$var wire 1 h$ inst7|inst26~0_combout $end
$var wire 1 i$ inst7|inst21~0_combout $end
$var wire 1 j$ inst7|inst18~combout $end
$var wire 1 k$ inst7|inst17~0_combout $end
$var wire 1 l$ inst7|inst14~0_combout $end
$var wire 1 m$ inst8|inst28~0_combout $end
$var wire 1 n$ inst8|inst27~0_combout $end
$var wire 1 o$ inst8|inst26~0_combout $end
$var wire 1 p$ inst8|inst21~0_combout $end
$var wire 1 q$ inst13|inst18~combout $end
$var wire 1 r$ inst8|inst17~0_combout $end
$var wire 1 s$ inst8|inst14~0_combout $end
$var wire 1 t$ inst2|inst28~0_combout $end
$var wire 1 u$ inst2|inst27~0_combout $end
$var wire 1 v$ inst2|inst26~0_combout $end
$var wire 1 w$ inst2|inst21~0_combout $end
$var wire 1 x$ inst2|inst18~combout $end
$var wire 1 y$ inst2|inst17~0_combout $end
$var wire 1 z$ inst2|inst14~0_combout $end
$var wire 1 {$ inst3|inst28~0_combout $end
$var wire 1 |$ inst3|inst27~0_combout $end
$var wire 1 }$ inst3|inst26~0_combout $end
$var wire 1 ~$ inst3|inst21~0_combout $end
$var wire 1 !% inst3|inst18~combout $end
$var wire 1 "% inst3|inst17~0_combout $end
$var wire 1 #% inst3|inst14~0_combout $end
$var wire 1 $% inst15|inst29~0_combout $end
$var wire 1 %% inst16|inst4~combout $end
$var wire 1 &% inst15|inst11~2_combout $end
$var wire 1 '% inst15|inst11~1_combout $end
$var wire 1 (% inst15|inst11~3_combout $end
$var wire 1 )% inst15|inst22~0_combout $end
$var wire 1 *% inst16214|inst~2_combout $end
$var wire 1 +% inst16214|inst28~0_combout $end
$var wire 1 ,% inst16214|inst28~1_combout $end
$var wire 1 -% inst16214|inst17~0_combout $end
$var wire 1 .% inst16214|inst27~0_combout $end
$var wire 1 /% inst16214|inst26~0_combout $end
$var wire 1 0% inst16214|inst21~3_combout $end
$var wire 1 1% inst16214|inst21~2_combout $end
$var wire 1 2% inst16214|inst18~combout $end
$var wire 1 3% inst16214|inst17~combout $end
$var wire 1 4% inst16214|inst14~0_combout $end
$var wire 1 5% inst16214|inst14~combout $end
$var wire 1 6% inst15|inst12~0_combout $end
$var wire 1 7% inst15|inst12~1_combout $end
$var wire 1 8% inst1762163|inst27~combout $end
$var wire 1 9% inst1762163|inst17~combout $end
$upscope $end
$upscope $end
$enddefinitions $end
#0
$dumpvars
0!
0"
0#
0$
0%
0&
0'
0(
0)
0*
0+
0,
0-
0.
0/
00
01
02
03
04
05
06
07
08
09
0:
x;
x<
x=
x>
x?
1F
1E
1D
1C
1B
1A
0@
1M
1L
1K
1J
1I
1H
0G
1T
1S
1R
1Q
1P
1O
0N
1[
1Z
1Y
1X
1W
1V
0U
1b
1a
1`
1_
1^
1]
0\
1i
1h
1g
1f
1e
1d
0c
xp
xo
xn
xm
xl
xk
xj
xw
1v
1u
xt
xs
xr
0q
1~
1}
1|
1{
1z
1y
0x
1'!
1&!
1%!
1$!
1#!
1"!
0!!
1.!
1-!
1,!
1+!
1*!
1)!
0(!
15!
14!
13!
12!
11!
10!
0/!
06!
17!
x8!
19!
1:!
1;!
0<!
z=!
z>!
x?!
x@!
xA!
xB!
xC!
0D!
1E!
1F!
1G!
1H!
1I!
1J!
0K!
1L!
1M!
1N!
1O!
1P!
1Q!
0R!
1S!
1T!
1U!
1V!
1W!
1X!
0Y!
1Z!
1[!
1\!
1]!
1^!
1_!
0`!
1a!
1b!
1c!
1d!
1e!
1f!
0g!
1h!
1i!
1j!
1k!
1l!
1m!
xn!
xo!
xp!
xq!
xr!
xs!
xt!
0u!
xv!
xw!
xx!
1y!
1z!
x{!
0|!
1}!
1~!
1!"
1""
1#"
1$"
0%"
1&"
1'"
1("
1)"
1*"
1+"
0,"
1-"
1."
1/"
10"
11"
12"
03"
14"
15"
16"
17"
18"
19"
0:"
0;"
0<"
0="
0>"
0?"
0@"
0A"
0B"
0C"
0D"
0E"
0F"
0G"
1H"
0I"
0J"
0K"
0L"
0M"
0N"
0O"
0P"
0Q"
0R"
0S"
0T"
0U"
0V"
0W"
0X"
0Y"
0Z"
0["
0\"
0]"
0^"
0_"
0`"
0a"
0b"
0c"
0d"
0e"
1f"
0g"
0h"
0i"
0j"
0k"
1l"
0m"
0n"
0o"
0p"
0q"
0r"
0s"
0t"
0u"
0v"
0w"
0x"
1y"
0z"
0{"
0|"
0}"
0~"
0!#
0"#
0##
0$#
0%#
0&#
0'#
0(#
0)#
0*#
0+#
0,#
0-#
0.#
0/#
00#
01#
02#
03#
04#
05#
06#
07#
08#
09#
0:#
0;#
0<#
0=#
0>#
0?#
0@#
0A#
1B#
1C#
1D#
1E#
1F#
0G#
0H#
1I#
1J#
0K#
0L#
1M#
1N#
0O#
0P#
0Q#
1R#
0S#
1T#
1U#
1V#
1W#
1X#
1Y#
1Z#
1[#
1\#
1]#
1^#
1_#
0`#
1a#
0b#
xc#
xd#
0e#
0f#
0g#
0h#
0i#
0j#
0k#
0l#
0m#
0n#
0o#
0p#
0q#
0r#
0s#
0t#
0u#
0v#
0w#
0x#
0y#
0z#
0{#
0|#
0}#
0~#
0!$
0"$
0#$
0$$
0%$
0&$
0'$
0($
0)$
0*$
0+$
0,$
0-$
0.$
0/$
00$
01$
02$
03$
04$
05$
06$
07$
08$
09$
0:$
0;$
0<$
0=$
0>$
0?$
x@$
1A$
xB$
xC$
0D$
0E$
0F$
xG$
0H$
0I$
xJ$
xK$
xL$
xM$
xN$
xO$
xP$
xQ$
xR$
xS$
xT$
xU$
xV$
xW$
xX$
0Y$
0Z$
0[$
0\$
1]$
1^$
1_$
1`$
1a$
1b$
0c$
1d$
1e$
0f$
1g$
1h$
1i$
1j$
1k$
1l$
0m$
1n$
1o$
1p$
1q$
1r$
1s$
0t$
1u$
1v$
1w$
1x$
1y$
1z$
0{$
1|$
1}$
1~$
1!%
1"%
1#%
x$%
x%%
x&%
x'%
x(%
x)%
x*%
x+%
x,%
x-%
x.%
x/%
x0%
x1%
x2%
x3%
x4%
x5%
x6%
x7%
x8%
19%
$end
#5000
1#
1<"
1e#
#10000
0#
0<"
0e#
#15000
1#
1<"
1e#
#20000
0#
0<"
0e#
#25000
1#
1<"
1e#
#30000
0#
0<"
0e#
#35000
1#
1<"
1e#
#40000
1!
1"
0#
1f#
10$
0<"
0e#
#45000
1#
1<"
1e#
11$
1g#
13$
1i#
1%$
14$
1{#
#50000
0#
0<"
0e#
#55000
1#
1<"
1e#
15$
12$
1|#
1h#
xD$
03$
1}#
0i#
0b$
0_$
0^$
0]$
16$
04$
0l$
0i$
0h$
0g$
0{#
0S!
0}!
0T!
0~!
0U!
0!"
0X!
0$"
0E!
0F!
0G!
0J!
xE$
0%$
0}#
0F
0C
0B
0A
0~
0T
0{
0Q
0z
0P
0y
0O
06$
14$
1~#
1{#
xH$
0~#
#60000
0#
0<"
0e#
#65000
1#
1<"
1e#
#70000
0#
0<"
0e#
#75000
1#
1<"
1e#
#80000
0!
0"
0#
0f#
00$
0<"
0e#
#85000
1#
1<"
1e#
01$
0g#
#90000
0#
0<"
0e#
#95000
1#
1<"
1e#
02$
0h#
#100000
0#
0<"
0e#
#105000
1#
1<"
1e#
#110000
0#
0<"
0e#
#115000
1#
1<"
1e#
#120000
1-
1"
0#
1f#
1o"
0<"
0e#
1s"
10#
1z"
1{"
#125000
1#
1<"
1e#
1|"
1g#
1!#
1i#
1"#
1}"
1%$
1}#
0{#
1~#
11#
1?#
14#
1@#
16#
#130000
0#
0<"
0e#
#135000
1#
1<"
1e#
1~"
1!$
0|#
1h#
0!#
0}#
0i#
0"#
1l$
0j$
1i$
1h$
1f$
1"$
0~#
1{#
1R!
1|!
1T!
1~!
1U!
1!"
0V!
0""
1X!
1$"
0%$
1~
1T
0|
0R
1{
1Q
1z
1P
1x
1N
0"$
1~#
0{#
#140000
0#
0<"
0e#
#145000
1#
1<"
1e#
#150000
0#
0<"
0e#
#155000
1#
1<"
1e#
#160000
0-
0"
0#
0f#
0o"
0<"
0e#
0s"
00#
0z"
0{"
#165000
1#
1<"
1e#
0|"
0g#
0}"
#170000
0#
0<"
0e#
#175000
1#
1<"
1e#
0~"
0h#
#180000
0#
0<"
0e#
#185000
1#
1<"
1e#
#190000
0#
0<"
0e#
#195000
1#
1<"
1e#
#200000
18
1!
1"
0#
1f#
10$
1="
0<"
0e#
1A"
1["
1I"
#205000
1#
1<"
1e#
1J"
11$
1g#
1L"
13$
1i#
1M"
1%$
16$
04$
1{#
1\"
1i"
1^"
1j"
1`"
#210000
0#
0<"
0e#
#215000
1#
1<"
1e#
1K"
17$
05$
12$
1|#
1h#
0L"
1[$
03$
1}#
0i#
0M"
1b$
1_$
1^$
1]$
14$
1j$
0h$
0{#
0T!
0~!
1V!
1""
1E!
1F!
1G!
1J!
0%$
0}#
1F
1C
1B
1A
1|
1R
0z
0P
0`$
0]$
1\$
04$
1"$
0~#
1{#
1D!
0E!
0H!
0D
0A
1@
0"$
1~#
#220000
0#
0<"
0e#
#225000
1#
1<"
1e#
#230000
0#
0<"
0e#
#235000
1#
1<"
1e#
