simulation/qsim/digital_clock.msim.vcd
$comment
	File created using the following command:
		vcd file digital_clock.msim.vcd -direction
$end
$date
	Sat Nov 26 21:57:45 2022
$end
$version
	ModelSim Version 2020.1
$end
$timescale
	1ps
$end

$scope module digital_clock_vlg_vec_tst $end
$var reg 1 ! Add_1H_Switch $end
$var reg 1 " Add_1M_Switch $end
$var reg 1 # CLK $end
$var reg 1 $ Mode $end
$var reg 6 % TimeDiff [5:0] $end
$var reg 1 & Zero $end
$var wire 1 ' Afternoon $end
$var wire 1 ( monrnig $end
$var wire 1 ) My_H0 [6] $end
$var wire 1 * My_H0 [5] $end
$var wire 1 + My_H0 [4] $end
$var wire 1 , My_H0 [3] $end
$var wire 1 - My_H0 [2] $end
$var wire 1 . My_H0 [1] $end
$var wire 1 / My_H0 [0] $end
$var wire 1 0 My_H1 [6] $end
$var wire 1 1 My_H1 [5] $end
$var wire 1 2 My_H1 [4] $end
$var wire 1 3 My_H1 [3] $end
$var wire 1 4 My_H1 [2] $end
$var wire 1 5 My_H1 [1] $end
$var wire 1 6 My_H1 [0] $end
$var wire 1 7 My_M0 [6] $end
$var wire 1 8 My_M0 [5] $end
$var wire 1 9 My_M0 [4] $end
$var wire 1 : My_M0 [3] $end
$var wire 1 ; My_M0 [2] $end
$var wire 1 < My_M0 [1] $end
$var wire 1 = My_M0 [0] $end
$var wire 1 > My_M1 [6] $end
$var wire 1 ? My_M1 [5] $end
$var wire 1 @ My_M1 [4] $end
$var wire 1 A My_M1 [3] $end
$var wire 1 B My_M1 [2] $end
$var wire 1 C My_M1 [1] $end
$var wire 1 D My_M1 [0] $end
$var wire 1 E My_S0 [6] $end
$var wire 1 F My_S0 [5] $end
$var wire 1 G My_S0 [4] $end
$var wire 1 H My_S0 [3] $end
$var wire 1 I My_S0 [2] $end
$var wire 1 J My_S0 [1] $end
$var wire 1 K My_S0 [0] $end
$var wire 1 L My_S1 [6] $end
$var wire 1 M My_S1 [5] $end
$var wire 1 N My_S1 [4] $end
$var wire 1 O My_S1 [3] $end
$var wire 1 P My_S1 [2] $end
$var wire 1 Q My_S1 [1] $end
$var wire 1 R My_S1 [0] $end
$var wire 1 S Your_H0 [6] $end
$var wire 1 T Your_H0 [5] $end
$var wire 1 U Your_H0 [4] $end
$var wire 1 V Your_H0 [3] $end
$var wire 1 W Your_H0 [2] $end
$var wire 1 X Your_H0 [1] $end
$var wire 1 Y Your_H0 [0] $end
$var wire 1 Z Your_H1 [6] $end
$var wire 1 [ Your_H1 [5] $end
$var wire 1 \ Your_H1 [4] $end
$var wire 1 ] Your_H1 [3] $end
$var wire 1 ^ Your_H1 [2] $end
$var wire 1 _ Your_H1 [1] $end
$var wire 1 ` Your_H1 [0] $end
$var wire 1 a Your_M0 [6] $end
$var wire 1 b Your_M0 [5] $end
$var wire 1 c Your_M0 [4] $end
$var wire 1 d Your_M0 [3] $end
$var wire 1 e Your_M0 [2] $end
$var wire 1 f Your_M0 [1] $end
$var wire 1 g Your_M0 [0] $end
$var wire 1 h Your_M1 [6] $end
$var wire 1 i Your_M1 [5] $end
$var wire 1 j Your_M1 [4] $end
$var wire 1 k Your_M1 [3] $end
$var wire 1 l Your_M1 [2] $end
$var wire 1 m Your_M1 [1] $end
$var wire 1 n Your_M1 [0] $end
$var wire 1 o Your_S0 [6] $end
$var wire 1 p Your_S0 [5] $end
$var wire 1 q Your_S0 [4] $end
$var wire 1 r Your_S0 [3] $end
$var wire 1 s Your_S0 [2] $end
$var wire 1 t Your_S0 [1] $end
$var wire 1 u Your_S0 [0] $end
$var wire 1 v Your_S1 [6] $end
$var wire 1 w Your_S1 [5] $end
$var wire 1 x Your_S1 [4] $end
$var wire 1 y Your_S1 [3] $end
$var wire 1 z Your_S1 [2] $end
$var wire 1 { Your_S1 [1] $end
$var wire 1 | Your_S1 [0] $end

$scope module i1 $end
$var wire 1 } gnd $end
$var wire 1 ~ vcc $end
$var wire 1 !! unknown $end
$var tri1 1 "! devclrn $end
$var tri1 1 #! devpor $end
$var tri1 1 $! devoe $end
$var wire 1 %! ~QUARTUS_CREATED_GND~I_combout $end
$var wire 1 &! ~QUARTUS_CREATED_UNVM~~busy $end
$var wire 1 '! ~QUARTUS_CREATED_ADC1~~eoc $end
$var wire 1 (! monrnig~output_o $end
$var wire 1 )! Afternoon~output_o $end
$var wire 1 *! My_H0[6]~output_o $end
$var wire 1 +! My_H0[5]~output_o $end
$var wire 1 ,! My_H0[4]~output_o $end
$var wire 1 -! My_H0[3]~output_o $end
$var wire 1 .! My_H0[2]~output_o $end
$var wire 1 /! My_H0[1]~output_o $end
$var wire 1 0! My_H0[0]~output_o $end
$var wire 1 1! My_H1[6]~output_o $end
$var wire 1 2! My_H1[5]~output_o $end
$var wire 1 3! My_H1[4]~output_o $end
$var wire 1 4! My_H1[3]~output_o $end
$var wire 1 5! My_H1[2]~output_o $end
$var wire 1 6! My_H1[1]~output_o $end
$var wire 1 7! My_H1[0]~output_o $end
$var wire 1 8! My_M0[6]~output_o $end
$var wire 1 9! My_M0[5]~output_o $end
$var wire 1 :! My_M0[4]~output_o $end
$var wire 1 ;! My_M0[3]~output_o $end
$var wire 1 <! My_M0[2]~output_o $end
$var wire 1 =! My_M0[1]~output_o $end
$var wire 1 >! My_M0[0]~output_o $end
$var wire 1 ?! My_M1[6]~output_o $end
$var wire 1 @! My_M1[5]~output_o $end
$var wire 1 A! My_M1[4]~output_o $end
$var wire 1 B! My_M1[3]~output_o $end
$var wire 1 C! My_M1[2]~output_o $end
$var wire 1 D! My_M1[1]~output_o $end
$var wire 1 E! My_M1[0]~output_o $end
$var wire 1 F! My_S0[6]~output_o $end
$var wire 1 G! My_S0[5]~output_o $end
$var wire 1 H! My_S0[4]~output_o $end
$var wire 1 I! My_S0[3]~output_o $end
$var wire 1 J! My_S0[2]~output_o $end
$var wire 1 K! My_S0[1]~output_o $end
$var wire 1 L! My_S0[0]~output_o $end
$var wire 1 M! My_S1[6]~output_o $end
$var wire 1 N! My_S1[5]~output_o $end
$var wire 1 O! My_S1[4]~output_o $end
$var wire 1 P! My_S1[3]~output_o $end
$var wire 1 Q! My_S1[2]~output_o $end
$var wire 1 R! My_S1[1]~output_o $end
$var wire 1 S! My_S1[0]~output_o $end
$var wire 1 T! Your_H0[6]~output_o $end
$var wire 1 U! Your_H0[5]~output_o $end
$var wire 1 V! Your_H0[4]~output_o $end
$var wire 1 W! Your_H0[3]~output_o $end
$var wire 1 X! Your_H0[2]~output_o $end
$var wire 1 Y! Your_H0[1]~output_o $end
$var wire 1 Z! Your_H0[0]~output_o $end
$var wire 1 [! Your_H1[6]~output_o $end
$var wire 1 \! Your_H1[5]~output_o $end
$var wire 1 ]! Your_H1[4]~output_o $end
$var wire 1 ^! Your_H1[3]~output_o $end
$var wire 1 _! Your_H1[2]~output_o $end
$var wire 1 `! Your_H1[1]~output_o $end
$var wire 1 a! Your_H1[0]~output_o $end
$var wire 1 b! Your_M0[6]~output_o $end
$var wire 1 c! Your_M0[5]~output_o $end
$var wire 1 d! Your_M0[4]~output_o $end
$var wire 1 e! Your_M0[3]~output_o $end
$var wire 1 f! Your_M0[2]~output_o $end
$var wire 1 g! Your_M0[1]~output_o $end
$var wire 1 h! Your_M0[0]~output_o $end
$var wire 1 i! Your_M1[6]~output_o $end
$var wire 1 j! Your_M1[5]~output_o $end
$var wire 1 k! Your_M1[4]~output_o $end
$var wire 1 l! Your_M1[3]~output_o $end
$var wire 1 m! Your_M1[2]~output_o $end
$var wire 1 n! Your_M1[1]~output_o $end
$var wire 1 o! Your_M1[0]~output_o $end
$var wire 1 p! Your_S0[6]~output_o $end
$var wire 1 q! Your_S0[5]~output_o $end
$var wire 1 r! Your_S0[4]~output_o $end
$var wire 1 s! Your_S0[3]~output_o $end
$var wire 1 t! Your_S0[2]~output_o $end
$var wire 1 u! Your_S0[1]~output_o $end
$var wire 1 v! Your_S0[0]~output_o $end
$var wire 1 w! Your_S1[6]~output_o $end
$var wire 1 x! Your_S1[5]~output_o $end
$var wire 1 y! Your_S1[4]~output_o $end
$var wire 1 z! Your_S1[3]~output_o $end
$var wire 1 {! Your_S1[2]~output_o $end
$var wire 1 |! Your_S1[1]~output_o $end
$var wire 1 }! Your_S1[0]~output_o $end
$var wire 1 ~! CLK~input_o $end
$var wire 1 !" CLK~inputclkctrl_outclk $end
$var wire 1 "" Mode~input_o $end
$var wire 1 #" Add_1H_Switch~input_o $end
$var wire 1 $" inst23|inst~q $end
$var wire 1 %" inst23|inst1~q $end
$var wire 1 &" Add_1M_Switch~input_o $end
$var wire 1 '" Insten|inst~q $end
$var wire 1 (" Insten|inst1~q $end
$var wire 1 )" Insten|inst6~0_combout $end
$var wire 1 *" in20|inst~0_combout $end
$var wire 1 +" in20|inst~q $end
$var wire 1 ," in20|inst29~0_combout $end
$var wire 1 -" in20|inst29~q $end
$var wire 1 ." in20|inst30~0_combout $end
$var wire 1 /" in20|inst30~q $end
$var wire 1 0" in20|inst39~0_combout $end
$var wire 1 1" in20|inst31~0_combout $end
$var wire 1 2" in20|inst31~q $end
$var wire 1 3" inst45|inst6~0_combout $end
$var wire 1 4" inst45|inst6~q $end
$var wire 1 5" inst4~0_combout $end
$var wire 1 6" inst45|inst5~0_combout $end
$var wire 1 7" inst45|inst5~q $end
$var wire 1 8" inst45|inst~0_combout $end
$var wire 1 9" inst45|inst~q $end
$var wire 1 :" in21|inst~0_combout $end
$var wire 1 ;" in21|inst~q $end
$var wire 1 <" inst6~0_combout $end
$var wire 1 =" inst21~combout $end
$var wire 1 >" in21|inst29~0_combout $end
$var wire 1 ?" in21|inst29~q $end
$var wire 1 @" in21|inst30~0_combout $end
$var wire 1 A" in21|inst30~q $end
$var wire 1 B" in21|inst39~0_combout $end
$var wire 1 C" in21|inst31~0_combout $end
$var wire 1 D" in21|inst31~q $end
$var wire 1 E" inst46|inst6~0_combout $end
$var wire 1 F" inst46|inst6~q $end
$var wire 1 G" inst5~0_combout $end
$var wire 1 H" inst46|inst5~0_combout $end
$var wire 1 I" inst46|inst5~q $end
$var wire 1 J" inst46|inst~0_combout $end
$var wire 1 K" inst46|inst~q $end
$var wire 1 L" inst5~combout $end
$var wire 1 M" inst24~combout $end
$var wire 1 N" inst123215|inst1~1_combout $end
$var wire 1 O" inst123215|inst1~q $end
$var wire 1 P" inst123215|inst~0_combout $end
$var wire 1 Q" inst123215|inst~1_combout $end
$var wire 1 R" inst123215|inst~q $end
$var wire 1 S" inst123215|inst44~combout $end
$var wire 1 T" inst23|inst6~0_combout $end
$var wire 1 U" inst123215|inst3~0_combout $end
$var wire 1 V" inst123215|inst3~q $end
$var wire 1 W" inst123215|inst2~0_combout $end
$var wire 1 X" inst123215|inst2~q $end
$var wire 1 Y" inst123215|inst1~0_combout $end
$var wire 1 Z" inst17~0_combout $end
$var wire 1 [" inst17~q $end
$var wire 1 \" inst16213|inst28~0_combout $end
$var wire 1 ]" inst16213|inst27~0_combout $end
$var wire 1 ^" inst16213|inst26~0_combout $end
$var wire 1 _" inst16213|inst21~0_combout $end
$var wire 1 `" ist325|inst213~0_combout $end
$var wire 1 a" inst16213|inst17~0_combout $end
$var wire 1 b" inst16213|inst14~0_combout $end
$var wire 1 c" Zero~input_o $end
$var wire 1 d" inst1762162|inst27~0_combout $end
$var wire 1 e" inst1762162|inst27~1_combout $end
$var wire 1 f" inst1762162|inst17~combout $end
$var wire 1 g" inst7|inst28~0_combout $end
$var wire 1 h" inst7|inst27~0_combout $end
$var wire 1 i" inst7|inst26~0_combout $end
$var wire 1 j" inst7|inst21~0_combout $end
$var wire 1 k" inst11|inst18~combout $end
$var wire 1 l" inst7|inst17~0_combout $end
$var wire 1 m" inst7|inst14~0_combout $end
$var wire 1 n" inst8|inst28~0_combout $end
$var wire 1 o" inst8|inst27~0_combout $end
$var wire 1 p" inst8|inst26~0_combout $end
$var wire 1 q" inst8|inst21~0_combout $end
$var wire 1 r" inst13|inst18~combout $end
$var wire 1 s" inst8|inst17~0_combout $end
$var wire 1 t" inst8|inst14~0_combout $end
$var wire 1 u" inst2|inst28~0_combout $end
$var wire 1 v" inst2|inst27~0_combout $end
$var wire 1 w" inst2|inst26~0_combout $end
$var wire 1 x" inst2|inst21~0_combout $end
$var wire 1 y" inst9|inst18~combout $end
$var wire 1 z" inst2|inst17~0_combout $end
$var wire 1 {" inst2|inst14~0_combout $end
$var wire 1 |" inst3|inst28~0_combout $end
$var wire 1 }" inst3|inst27~0_combout $end
$var wire 1 ~" inst3|inst26~0_combout $end
$var wire 1 !# inst3|inst21~0_combout $end
$var wire 1 "# inst10|inst18~combout $end
$var wire 1 ## inst3|inst17~0_combout $end
$var wire 1 $# inst3|inst14~0_combout $end
$var wire 1 %# TimeDiff[2]~input_o $end
$var wire 1 &# TimeDiff[0]~input_o $end
$var wire 1 '# inst15|inst|inst2~1_combout $end
$var wire 1 (# TimeDiff[1]~input_o $end
$var wire 1 )# inst15|inst|inst2~0_combout $end
$var wire 1 *# inst15|inst1|inst2~0_combout $end
$var wire 1 +# inst15|inst2|inst2~1_combout $end
$var wire 1 ,# TimeDiff[3]~input_o $end
$var wire 1 -# inst15|inst2|inst2~0_combout $end
$var wire 1 .# inst15|inst3|inst2~0_combout $end
$var wire 1 /# TimeDiff[4]~input_o $end
$var wire 1 0# inst15|inst4|inst1~0_combout $end
$var wire 1 1# inst15|inst2|inst1~0_combout $end
$var wire 1 2# inst15|inst3|inst1~0_combout $end
$var wire 1 3# inst12|inst24234~1_combout $end
$var wire 1 4# TimeDiff[5]~input_o $end
$var wire 1 5# inst15|inst5|inst1~combout $end
$var wire 1 6# inst15|inst3|inst1~combout $end
$var wire 1 7# inst12|inst24234~0_combout $end
$var wire 1 8# inst15|inst6|inst1~combout $end
$var wire 1 9# inst12|inst24234~2_combout $end
$var wire 1 :# inst15|inst1|inst1~combout $end
$var wire 1 ;# inst12|inst29~0_combout $end
$var wire 1 <# inst12|inst29~1_combout $end
$var wire 1 =# inst12|inst29~2_combout $end
$var wire 1 ># inst15|inst|inst1~0_combout $end
$var wire 1 ?# inst16214|inst28~0_combout $end
$var wire 1 @# inst16214|inst27~0_combout $end
$var wire 1 A# inst16214|inst26~0_combout $end
$var wire 1 B# inst16214|inst21~0_combout $end
$var wire 1 C# inst16214|inst18~combout $end
$var wire 1 D# inst16214|inst17~0_combout $end
$var wire 1 E# inst16214|inst14~0_combout $end
$var wire 1 F# inst1762163|inst27~0_combout $end
$var wire 1 G# inst1762163|inst27~1_combout $end
$var wire 1 H# inst1762163|inst17~combout $end
$upscope $end
$upscope $end
$enddefinitions $end
#0
$dumpvars
1!
1"
0#
0$
b1111 %
0&
0'
1(
1/
1.
0-
1,
1+
0*
1)
06
15
14
03
02
01
00
1=
1<
1;
1:
19
18
07
1D
1C
1B
1A
1@
1?
0>
1K
1J
1I
1H
1G
1F
0E
1R
1Q
1P
1O
1N
1M
0L
1Y
1X
1W
1V
0U
0T
1S
1`
1_
1^
1]
1\
1[
0Z
1g
1f
1e
1d
1c
1b
0a
1n
1m
1l
1k
1j
1i
0h
1u
1t
1s
1r
1q
1p
0o
1|
1{
1z
1y
1x
1w
0v
0}
1~
x!!
1"!
1#!
1$!
0%!
z&!
z'!
1(!
0)!
1*!
0+!
1,!
1-!
0.!
1/!
10!
01!
02!
03!
04!
15!
16!
07!
08!
19!
1:!
1;!
1<!
1=!
1>!
0?!
1@!
1A!
1B!
1C!
1D!
1E!
0F!
1G!
1H!
1I!
1J!
1K!
1L!
0M!
1N!
1O!
1P!
1Q!
1R!
1S!
1T!
0U!
0V!
1W!
1X!
1Y!
1Z!
0[!
1\!
1]!
1^!
1_!
1`!
1a!
0b!
1c!
1d!
1e!
1f!
1g!
1h!
0i!
1j!
1k!
1l!
1m!
1n!
1o!
0p!
1q!
1r!
1s!
1t!
1u!
1v!
0w!
1x!
1y!
1z!
1{!
1|!
1}!
0~!
0!"
0""
1#"
0$"
0%"
1&"
0'"
0("
0)"
0*"
0+"
0,"
0-"
0."
0/"
00"
01"
02"
03"
04"
05"
06"
07"
08"
09"
0:"
0;"
0<"
0="
0>"
0?"
0@"
0A"
0B"
0C"
0D"
0E"
0F"
0G"
0H"
0I"
0J"
0K"
0L"
0M"
0N"
0O"
0P"
0Q"
0R"
0S"
0T"
0U"
0V"
0W"
0X"
0Y"
0Z"
0["
1\"
0]"
1^"
1_"
1`"
1a"
1b"
0c"
1d"
0e"
1f"
0g"
1h"
1i"
1j"
1k"
1l"
1m"
0n"
1o"
1p"
1q"
1r"
1s"
1t"
0u"
1v"
1w"
1x"
1y"
1z"
1{"
0|"
1}"
1~"
1!#
1"#
1##
1$#
1%#
1&#
0'#
1(#
0)#
0*#
0+#
1,#
0-#
0.#
0/#
00#
11#
12#
13#
04#
05#
16#
07#
08#
09#
1:#
0;#
0<#
0=#
1>#
1?#
0@#
0A#
1B#
1C#
1D#
1E#
0F#
1G#
1H#
$end
#5000
1#
1~!
1!"
1'"
1$"
1)"
1T"
1P"
1M"
1="
1:"
1U"
#10000
0#
0~!
0!"
#15000
1#
1~!
1!"
1V"
1;"
1("
1%"
0>#
1)#
0d"
0`"
1<"
0)"
0T"
0P"
0M"
0b"
0_"
0^"
0\"
1W"
0U"
0m"
0j"
0i"
0h"
0:"
09!
0c!
0:!
0d!
0;!
0e!
0>!
0h!
0*!
0,!
0-!
00!
1.!
13!
0:#
1*#
0="
0<"
12
1-
0/
0,
0+
0)
0g
0=
0d
0:
0c
09
0b
08
0C#
1A#
1e"
1>"
1:"
1U"
0W"
12!
14!
17!
1V!
0X!
1F#
02#
01#
1+#
0W
1U
16
13
11
0>"
0]!
06#
1.#
0\
0G#
0\!
0^!
0a!
10#
0`
0]
0[
19#
0F#
0E#
1C#
0B#
0A#
1@#
1U!
0V!
0W!
1X!
0Z!
1]!
1\
0Y
1W
0V
0U
1T
1G#
1\!
1^!
1a!
1`
1]
1[
#20000
0#
0~!
0!"
#25000
1#
1~!
1!"
#30000
0#
0~!
0!"
#35000
1#
1~!
1!"
#40000
0!
0"
0#
0~!
0&"
0#"
0!"
#45000
1#
1~!
1!"
0'"
0$"
#50000
0#
0~!
0!"
#55000
1#
1~!
1!"
0("
0%"
#60000
0#
0~!
0!"
#65000
1#
1~!
1!"
#70000
0#
0~!
0!"
#75000
1#
1~!
1!"
#80000
1!
1"
0#
0~!
1&"
1#"
0!"
#85000
1#
1~!
1!"
1'"
1$"
1)"
1T"
1P"
1M"
1="
1<"
0:"
0U"
1W"
1>"
#90000
0#
0~!
0!"
#95000
1#
1~!
1!"
1X"
0V"
1?"
0;"
1("
1%"
1:#
1>#
0)#
1`"
0<"
0)"
0T"
0P"
0M"
1b"
1_"
1^"
1\"
1U"
1m"
0k"
1j"
1i"
1g"
1@"
0>"
1:"
18!
1b!
1:!
1d!
1;!
1e!
0<!
0f!
1>!
1h!
1*!
1,!
1-!
10!
0.!
0:#
0="
0-
1/
1,
1+
1)
1g
1=
0e
0;
1d
1:
1c
19
1a
17
1E#
0@#
0?#
0@"
1>"
0:"
0U"
0T!
0U!
1Z!
1Y
0T
0S
0D#
1B#
1@#
1?#
1T!
1U!
1W!
0Y!
0X
1V
1T
1S
#100000
0#
0~!
0!"
#105000
1#
1~!
1!"
#110000
0#
0~!
0!"
#115000
1#
1~!
1!"
#120000
0!
0"
0#
0~!
0&"
0#"
0!"
#125000
1#
1~!
1!"
0'"
0$"
#130000
0#
0~!
0!"
#135000
1#
1~!
1!"
0("
0%"
#140000
0#
0~!
0!"
#145000
1#
1~!
1!"
#150000
0#
0~!
0!"
#155000
1#
1~!
1!"
#160000
1!
1"
0#
0~!
1&"
1#"
0!"
#165000
1#
1~!
1!"
1'"
1$"
1)"
1T"
1P"
1M"
1="
1:"
1U"
#170000
0#
0~!
0!"
#175000
1#
1~!
1!"
1V"
1;"
1("
1%"
0>#
1)#
0`"
1Y"
1<"
0)"
0T"
0P"
0M"
0^"
0W"
0U"
1k"
0i"
0:"
0:!
0d!
1<!
1f!
0,!
1.!
1:#
0="
0<"
1-
0+
1e
1;
0c
09
0E#
1D#
0B#
1@"
0>"
1:"
1U"
1W"
0W!
1Y!
0Z!
0Y
1X
0V
1E#
0D#
1B#
1A#
0@"
1>"
1V!
1W!
0Y!
1Z!
1Y
0X
1V
1U
#180000
0#
0~!
0!"
#185000
1#
1~!
1!"
#190000
0#
0~!
0!"
#195000
1#
1~!
1!"
#200000
0!
0"
0#
0~!
0&"
0#"
0!"
#205000
1#
1~!
1!"
0'"
0$"
#210000
0#
0~!
0!"
#215000
1#
1~!
1!"
0("
0%"
#220000
0#
0~!
0!"
#225000
1#
1~!
1!"
#230000
0#
0~!
0!"
#235000
1#
1~!
1!"
#240000
1!
1"
0#
0~!
1&"
1#"
0!"
#245000
1#
1~!
1!"
1'"
1$"
1)"
1T"
1P"
1M"
1="
1<"
0:"
0U"
0W"
1N"
1@"
0>"
#250000
0#
0~!
0!"
#255000
1#
1~!
1!"
0X"
0V"
1O"
1A"
0?"
0;"
1("
1%"
0:#
0Y"
1>#
0)#
11#
1-#
0<"
0)"
0T"
0P"
0M"
0b"
0_"
1]"
1U"
1Q"
0N"
0m"
0j"
1h"
1>"
1:"
19!
1c!
0;!
0e!
0>!
0h!
1+!
0-!
00!
1:#
0*#
1<#
03#
0="
0/
0,
1*
0g
0=
0d
0:
1b
18
0A#
0Q"
1N"
0>"
0:"
0U"
0V!
01#
0+#
1=#
09#
0U
1D#
0B#
0@#
0?#
0T!
0U!
0W!
1Y!
0<#
13#
1F#
1X
0V
0T
0S
0E#
0Z!
0]!
0=#
19#
0\
0Y
0G#
0\!
0^!
0a!
0F#
0`
0]
0[
1E#
1Z!
1]!
1\
1Y
1G#
1\!
1^!
1a!
1`
1]
1[
#260000
0#
0~!
0!"
#265000
1#
1~!
1!"
#270000
0#
0~!
0!"
#275000
1#
1~!
1!"
#280000
0!
0"
0#
0~!
0&"
0#"
0!"
#285000
1#
1~!
1!"
0'"
0$"
#290000
0#
0~!
0!"
#295000
1#
1~!
1!"
0("
0%"
#300000
0#
0~!
0!"
#305000
1#
1~!
1!"
#310000
0#
0~!
0!"
#315000
1#
1~!
1!"
#320000
1!
1"
0#
0~!
1&"
1#"
0!"
#325000
1#
1~!
1!"
1'"
1$"
1)"
1T"
1P"
1M"
1="
1:"
1U"
#330000
0#
0~!
0!"
#335000
1#
1~!
1!"
1V"
1;"
1("
1%"
0>#
1)#
1<"
0)"
0T"
0P"
0M"
1b"
0a"
1_"
1W"
0U"
1m"
0l"
1j"
0:"
1;!
1e!
0=!
0g!
1>!
1h!
1-!
0/!
10!
0:#
1*#
0="
0<"
1/
0.
1,
1g
1=
0f
0<
1d
1:
0D#
1B#
1A#
1@#
1?#
1>"
1:"
1U"
0W"
1T!
1U!
1V!
1W!
0Y!
11#
1+#
0X
1V
1U
1T
1S
0E#
1D#
0B#
0A#
0>"
0V!
0W!
1Y!
0Z!
1<#
03#
0Y
1X
0V
0U
1=#
09#
1E#
1B#
1A#
1V!
1W!
1Z!
1Y
1V
1U
#340000
0#
0~!
0!"
#345000
1#
1~!
1!"
#350000
0#
0~!
0!"
#355000
1#
1~!
1!"
#360000
0!
0"
0#
0~!
0&"
0#"
0!"
#365000
1#
1~!
1!"
0'"
0$"
#370000
0#
0~!
0!"
#375000
1#
1~!
1!"
0("
0%"
#380000
0#
0~!
0!"
#385000
1#
1~!
1!"
#390000
0#
0~!
0!"
#395000
1#
1~!
1!"
#400000
1!
1"
0#
0~!
1&"
1#"
0!"
#405000
1#
1~!
1!"
1'"
1$"
1)"
1T"
1P"
1M"
1="
1<"
0:"
0U"
1W"
1>"
#410000
0#
0~!
0!"
#415000
1#
1~!
1!"
1X"
0V"
1?"
0;"
1("
1%"
1:#
1>#
0)#
1B"
0<"
0)"
0T"
0P"
0M"
1^"
1U"
1i"
0@"
0>"
1:"
1:!
1d!
1,!
1F#
0:#
0B"
0="
1+
1c
19
0E#
0B#
0A#
0@#
0?#
1C"
1@"
1>"
0:"
0U"
0T!
0U!
0V!
0W!
0Z!
0]!
0F#
0\
0Y
0V
0U
0T
0S
0G#
1E#
1B#
1@#
1?#
0C"
1T!
1U!
1W!
1Z!
0\!
0^!
0a!
1]!
1\
0`
0]
0[
1Y
1V
1T
1S
1G#
1\!
1^!
1a!
1`
1]
1[
#420000
0#
0~!
0!"
#425000
1#
1~!
1!"
#430000
0#
0~!
0!"
#435000
1#
1~!
1!"
#440000
0!
0"
0#
0~!
0&"
0#"
0!"
#445000
1#
1~!
1!"
0'"
0$"
#450000
0#
0~!
0!"
#455000
1#
1~!
1!"
0("
0%"
#460000
0#
0~!
0!"
#465000
1#
1~!
1!"
#470000
0#
0~!
0!"
#475000
1#
1~!
1!"
#480000
1!
1"
0#
0~!
1&"
1#"
0!"
#485000
1#
1~!
1!"
1'"
1$"
1)"
1T"
1P"
1M"
1="
1:"
1U"
#490000
0#
0~!
0!"
#495000
1#
1~!
1!"
1V"
1;"
1("
1%"
0>#
1)#
1Y"
1<"
0)"
0T"
0P"
0M"
1a"
0_"
0^"
0]"
0\"
0W"
0U"
1l"
0j"
0i"
0h"
0g"
0:"
08!
0b!
09!
0c!
0:!
0d!
0;!
0e!
1=!
1g!
0*!
0+!
0,!
0-!
1/!
1:#
1B"
0="
0<"
1.
0,
0+
0*
0)
1f
1<
0d
0:
0c
09
0b
08
0a
07
1A#
0@"
0>"
1:"
1U"
1W"
1V!
1F#
0B"
1U
0?#
1@"
1>"
0T!
0]!
0\
0S
0G#
0\!
0^!
0a!
0`
0]
0[
#500000
0#
0~!
0!"
#505000
1#
1~!
1!"
#510000
0#
0~!
0!"
#515000
1#
1~!
1!"
#520000
0!
0"
0#
0~!
0&"
0#"
0!"
#525000
1#
1~!
1!"
0'"
0$"
#530000
0#
0~!
0!"
#535000
1#
1~!
1!"
0("
0%"
#540000
0#
0~!
0!"
#545000
1#
1~!
1!"
#550000
0#
0~!
0!"
#555000
1#
1~!
1!"
#560000
1"
0#
0~!
1&"
0!"
#565000
1#
1~!
1!"
1'"
1)"
1="
1<"
0:"
1B"
0@"
0>"
1C"
#570000
0#
0~!
0!"
#575000
1#
1~!
1!"
1D"
0A"
0?"
0;"
1("
0B"
0<"
0)"
1j"
1h"
1g"
1E"
0C"
1i"
1:"
1:!
1d!
18!
1b!
19!
1c!
1;!
1e!
0="
1d
1:
1b
18
1a
17
1c
19
1C"
0E"
0:"
#580000
0#
0~!
0!"
#585000
1#
1~!
1!"
#590000
0#
0~!
0!"
#595000
1#
1~!
1!"
#600000
0"
0#
0~!
0&"
0!"
#605000
1#
1~!
1!"
0'"
#610000
0#
0~!
0!"
#615000
1#
1~!
1!"
0("
#620000
0#
0~!
0!"
#625000
1#
1~!
1!"
#630000
0#
0~!
0!"
#635000
1#
1~!
1!"
#640000
1"
0#
0~!
1&"
0!"
#645000
1#
1~!
1!"
1'"
1)"
1="
1:"
#650000
0#
0~!
0!"
#655000
1#
1~!
1!"
1;"
1("
1<"
0)"
0i"
0C"
0:"
0:!
0d!
0="
0<"
0c
09
1E"
1:"
1C"
0E"
#660000
0#
0~!
0!"
#665000
1#
1~!
1!"
#670000
0#
0~!
0!"
#675000
1#
1~!
1!"
#680000
0"
0#
0~!
0&"
0!"
#685000
1#
1~!
1!"
0'"
#690000
0#
0~!
0!"
#695000
1#
1~!
1!"
0("
#700000
0#
0~!
0!"
#705000
1#
1~!
1!"
#710000
0#
0~!
0!"
#715000
1#
1~!
1!"
#720000
1"
0#
0~!
1&"
0!"
#725000
1#
1~!
1!"
1'"
1)"
1="
1<"
0:"
0C"
1E"
#730000
0#
0~!
0!"
#735000
1#
1~!
1!"
1F"
0D"
0;"
1("
0<"
0)"
0t"
0q"
0p"
0o"
0g"
1>"
1i"
1:"
1:!
1d!
08!
0b!
0@!
0j!
0A!
0k!
0B!
0l!
0E!
0o!
0="
0n
0D
0k
0A
0j
0@
0i
0?
0a
07
1c
19
0>"
0:"
#740000
0#
0~!
0!"
#745000
1#
1~!
1!"
#750000
0#
0~!
0!"
#755000
1#
1~!
1!"
#760000
0"
0#
0~!
0&"
0!"
#765000
1#
1~!
1!"
0'"
#770000
0#
0~!
0!"
#775000
1#
1~!
1!"
0("
#780000
1$
0#
0~!
1""
0!"
1*"
#785000
1#
1~!
1!"
1+"
0{"
0x"
0w"
0v"
1,"
0*"
0G!
0q!
0H!
0r!
0I!
0s!
0L!
0v!
0u
0K
0r
0H
0q
0G
0p
0F
#790000
0#
0~!
0!"
#795000
1#
1~!
1!"
1-"
0+"
1{"
0y"
1x"
1w"
1u"
1*"
1F!
1p!
1H!
1r!
1I!
1s!
0J!
0t!
1L!
1v!
1u
1K
0s
0I
1r
1H
1q
1G
1o
1E
#800000
0#
0~!
0!"
#805000
1#
1~!
1!"
1+"
1y"
0w"
1."
0,"
0*"
0H!
0r!
1J!
1t!
1s
1I
0q
0G
#810000
0#
0~!
0!"
#815000
1#
1~!
1!"
1/"
0-"
0+"
0{"
0x"
1v"
1*"
1G!
1q!
0I!
0s!
0L!
0v!
0u
0K
0r
0H
1p
1F
#820000
0#
0~!
0!"
#825000
1#
1~!
1!"
1+"
1{"
0z"
1x"
1,"
0*"
1I!
1s!
0K!
0u!
1L!
1v!
1u
1K
0t
0J
1r
1H
#830000
0#
0~!
0!"
#835000
1#
1~!
1!"
1-"
0+"
10"
1w"
1*"
1H!
1r!
1q
1G
#840000
0#
0~!
0!"
#845000
1#
1~!
1!"
1+"
1z"
0x"
0w"
0v"
0u"
11"
0."
0,"
0*"
0F!
0p!
0G!
0q!
0H!
0r!
0I!
0s!
1K!
1u!
1t
1J
0r
0H
0q
0G
0p
0F
0o
0E
#850000
0#
0~!
0!"
