simulation/qsim/digital_clock.msim.vcd
$comment
	File created using the following command:
		vcd file digital_clock.msim.vcd -direction
$end
$date
	Mon Nov 28 19:09:00 2022
$end
$version
	ModelSim Version 2020.1
$end
$timescale
	1ps
$end

$scope module digital_clock_vlg_vec_tst $end
$var reg 1 ! Add_1H_Switch $end
$var reg 1 " Add_1M_Switch $end
$var reg 1 # CLK $end
$var reg 1 $ D0 $end
$var reg 1 % D1 $end
$var reg 1 & D2 $end
$var reg 1 ' D3 $end
$var reg 1 ( D4 $end
$var reg 1 ) D5 $end
$var reg 1 * Mode $end
$var reg 1 + S $end
$var reg 1 , Zero $end
$var wire 1 - H0 $end
$var wire 1 . H1 $end
$var wire 1 / H2 $end
$var wire 1 0 H3 $end
$var wire 1 1 H4 $end
$var wire 1 2 My_H0 [6] $end
$var wire 1 3 My_H0 [5] $end
$var wire 1 4 My_H0 [4] $end
$var wire 1 5 My_H0 [3] $end
$var wire 1 6 My_H0 [2] $end
$var wire 1 7 My_H0 [1] $end
$var wire 1 8 My_H0 [0] $end
$var wire 1 9 My_H1 [6] $end
$var wire 1 : My_H1 [5] $end
$var wire 1 ; My_H1 [4] $end
$var wire 1 < My_H1 [3] $end
$var wire 1 = My_H1 [2] $end
$var wire 1 > My_H1 [1] $end
$var wire 1 ? My_H1 [0] $end
$var wire 1 @ My_M0 [6] $end
$var wire 1 A My_M0 [5] $end
$var wire 1 B My_M0 [4] $end
$var wire 1 C My_M0 [3] $end
$var wire 1 D My_M0 [2] $end
$var wire 1 E My_M0 [1] $end
$var wire 1 F My_M0 [0] $end
$var wire 1 G My_M1 [6] $end
$var wire 1 H My_M1 [5] $end
$var wire 1 I My_M1 [4] $end
$var wire 1 J My_M1 [3] $end
$var wire 1 K My_M1 [2] $end
$var wire 1 L My_M1 [1] $end
$var wire 1 M My_M1 [0] $end
$var wire 1 N My_S0 [6] $end
$var wire 1 O My_S0 [5] $end
$var wire 1 P My_S0 [4] $end
$var wire 1 Q My_S0 [3] $end
$var wire 1 R My_S0 [2] $end
$var wire 1 S My_S0 [1] $end
$var wire 1 T My_S0 [0] $end
$var wire 1 U My_S1 [6] $end
$var wire 1 V My_S1 [5] $end
$var wire 1 W My_S1 [4] $end
$var wire 1 X My_S1 [3] $end
$var wire 1 Y My_S1 [2] $end
$var wire 1 Z My_S1 [1] $end
$var wire 1 [ My_S1 [0] $end
$var wire 1 \ Your_H0 [6] $end
$var wire 1 ] Your_H0 [5] $end
$var wire 1 ^ Your_H0 [4] $end
$var wire 1 _ Your_H0 [3] $end
$var wire 1 ` Your_H0 [2] $end
$var wire 1 a Your_H0 [1] $end
$var wire 1 b Your_H0 [0] $end
$var wire 1 c Your_H1 [6] $end
$var wire 1 d Your_H1 [5] $end
$var wire 1 e Your_H1 [4] $end
$var wire 1 f Your_H1 [3] $end
$var wire 1 g Your_H1 [2] $end
$var wire 1 h Your_H1 [1] $end
$var wire 1 i Your_H1 [0] $end
$var wire 1 j Your_M0 [6] $end
$var wire 1 k Your_M0 [5] $end
$var wire 1 l Your_M0 [4] $end
$var wire 1 m Your_M0 [3] $end
$var wire 1 n Your_M0 [2] $end
$var wire 1 o Your_M0 [1] $end
$var wire 1 p Your_M0 [0] $end
$var wire 1 q Your_M1 [6] $end
$var wire 1 r Your_M1 [5] $end
$var wire 1 s Your_M1 [4] $end
$var wire 1 t Your_M1 [3] $end
$var wire 1 u Your_M1 [2] $end
$var wire 1 v Your_M1 [1] $end
$var wire 1 w Your_M1 [0] $end
$var wire 1 x Your_S0 [6] $end
$var wire 1 y Your_S0 [5] $end
$var wire 1 z Your_S0 [4] $end
$var wire 1 { Your_S0 [3] $end
$var wire 1 | Your_S0 [2] $end
$var wire 1 } Your_S0 [1] $end
$var wire 1 ~ Your_S0 [0] $end
$var wire 1 !! Your_S1 [6] $end
$var wire 1 "! Your_S1 [5] $end
$var wire 1 #! Your_S1 [4] $end
$var wire 1 $! Your_S1 [3] $end
$var wire 1 %! Your_S1 [2] $end
$var wire 1 &! Your_S1 [1] $end
$var wire 1 '! Your_S1 [0] $end

$scope module i1 $end
$var wire 1 (! gnd $end
$var wire 1 )! vcc $end
$var wire 1 *! unknown $end
$var tri1 1 +! devclrn $end
$var tri1 1 ,! devpor $end
$var tri1 1 -! devoe $end
$var wire 1 .! ~QUARTUS_CREATED_GND~I_combout $end
$var wire 1 /! ~QUARTUS_CREATED_UNVM~~busy $end
$var wire 1 0! ~QUARTUS_CREATED_ADC1~~eoc $end
$var wire 1 1! H4~output_o $end
$var wire 1 2! H3~output_o $end
$var wire 1 3! H2~output_o $end
$var wire 1 4! H1~output_o $end
$var wire 1 5! H0~output_o $end
$var wire 1 6! My_H0[6]~output_o $end
$var wire 1 7! My_H0[5]~output_o $end
$var wire 1 8! My_H0[4]~output_o $end
$var wire 1 9! My_H0[3]~output_o $end
$var wire 1 :! My_H0[2]~output_o $end
$var wire 1 ;! My_H0[1]~output_o $end
$var wire 1 <! My_H0[0]~output_o $end
$var wire 1 =! My_H1[6]~output_o $end
$var wire 1 >! My_H1[5]~output_o $end
$var wire 1 ?! My_H1[4]~output_o $end
$var wire 1 @! My_H1[3]~output_o $end
$var wire 1 A! My_H1[2]~output_o $end
$var wire 1 B! My_H1[1]~output_o $end
$var wire 1 C! My_H1[0]~output_o $end
$var wire 1 D! My_M0[6]~output_o $end
$var wire 1 E! My_M0[5]~output_o $end
$var wire 1 F! My_M0[4]~output_o $end
$var wire 1 G! My_M0[3]~output_o $end
$var wire 1 H! My_M0[2]~output_o $end
$var wire 1 I! My_M0[1]~output_o $end
$var wire 1 J! My_M0[0]~output_o $end
$var wire 1 K! My_M1[6]~output_o $end
$var wire 1 L! My_M1[5]~output_o $end
$var wire 1 M! My_M1[4]~output_o $end
$var wire 1 N! My_M1[3]~output_o $end
$var wire 1 O! My_M1[2]~output_o $end
$var wire 1 P! My_M1[1]~output_o $end
$var wire 1 Q! My_M1[0]~output_o $end
$var wire 1 R! My_S0[6]~output_o $end
$var wire 1 S! My_S0[5]~output_o $end
$var wire 1 T! My_S0[4]~output_o $end
$var wire 1 U! My_S0[3]~output_o $end
$var wire 1 V! My_S0[2]~output_o $end
$var wire 1 W! My_S0[1]~output_o $end
$var wire 1 X! My_S0[0]~output_o $end
$var wire 1 Y! My_S1[6]~output_o $end
$var wire 1 Z! My_S1[5]~output_o $end
$var wire 1 [! My_S1[4]~output_o $end
$var wire 1 \! My_S1[3]~output_o $end
$var wire 1 ]! My_S1[2]~output_o $end
$var wire 1 ^! My_S1[1]~output_o $end
$var wire 1 _! My_S1[0]~output_o $end
$var wire 1 `! Your_H0[6]~output_o $end
$var wire 1 a! Your_H0[5]~output_o $end
$var wire 1 b! Your_H0[4]~output_o $end
$var wire 1 c! Your_H0[3]~output_o $end
$var wire 1 d! Your_H0[2]~output_o $end
$var wire 1 e! Your_H0[1]~output_o $end
$var wire 1 f! Your_H0[0]~output_o $end
$var wire 1 g! Your_H1[6]~output_o $end
$var wire 1 h! Your_H1[5]~output_o $end
$var wire 1 i! Your_H1[4]~output_o $end
$var wire 1 j! Your_H1[3]~output_o $end
$var wire 1 k! Your_H1[2]~output_o $end
$var wire 1 l! Your_H1[1]~output_o $end
$var wire 1 m! Your_H1[0]~output_o $end
$var wire 1 n! Your_M0[6]~output_o $end
$var wire 1 o! Your_M0[5]~output_o $end
$var wire 1 p! Your_M0[4]~output_o $end
$var wire 1 q! Your_M0[3]~output_o $end
$var wire 1 r! Your_M0[2]~output_o $end
$var wire 1 s! Your_M0[1]~output_o $end
$var wire 1 t! Your_M0[0]~output_o $end
$var wire 1 u! Your_M1[6]~output_o $end
$var wire 1 v! Your_M1[5]~output_o $end
$var wire 1 w! Your_M1[4]~output_o $end
$var wire 1 x! Your_M1[3]~output_o $end
$var wire 1 y! Your_M1[2]~output_o $end
$var wire 1 z! Your_M1[1]~output_o $end
$var wire 1 {! Your_M1[0]~output_o $end
$var wire 1 |! Your_S0[6]~output_o $end
$var wire 1 }! Your_S0[5]~output_o $end
$var wire 1 ~! Your_S0[4]~output_o $end
$var wire 1 !" Your_S0[3]~output_o $end
$var wire 1 "" Your_S0[2]~output_o $end
$var wire 1 #" Your_S0[1]~output_o $end
$var wire 1 $" Your_S0[0]~output_o $end
$var wire 1 %" Your_S1[6]~output_o $end
$var wire 1 &" Your_S1[5]~output_o $end
$var wire 1 '" Your_S1[4]~output_o $end
$var wire 1 (" Your_S1[3]~output_o $end
$var wire 1 )" Your_S1[2]~output_o $end
$var wire 1 *" Your_S1[1]~output_o $end
$var wire 1 +" Your_S1[0]~output_o $end
$var wire 1 ," D5~input_o $end
$var wire 1 -" S~input_o $end
$var wire 1 ." S~inputclkctrl_outclk $end
$var wire 1 /" inst16|inst2|inst27~1_combout $end
$var wire 1 0" D4~input_o $end
$var wire 1 1" inst16|inst2|inst22~1_combout $end
$var wire 1 2" D0~input_o $end
$var wire 1 3" inst16|inst2|inst2~1_combout $end
$var wire 1 4" CLK~input_o $end
$var wire 1 5" CLK~inputclkctrl_outclk $end
$var wire 1 6" Add_1H_Switch~input_o $end
$var wire 1 7" inst23|inst~feeder_combout $end
$var wire 1 8" inst23|inst~q $end
$var wire 1 9" inst23|inst1~q $end
$var wire 1 :" Mode~input_o $end
$var wire 1 ;" inst23|inst6~0_combout $end
$var wire 1 <" Zero~input_o $end
$var wire 1 =" Add_1M_Switch~input_o $end
$var wire 1 >" Insten|inst~q $end
$var wire 1 ?" Insten|inst1~q $end
$var wire 1 @" Insten|inst6~0_combout $end
$var wire 1 A" in20|inst~0_combout $end
$var wire 1 B" in20|inst~q $end
$var wire 1 C" in20|inst29~0_combout $end
$var wire 1 D" in20|inst29~q $end
$var wire 1 E" in20|inst30~0_combout $end
$var wire 1 F" in20|inst30~q $end
$var wire 1 G" in20|inst39~0_combout $end
$var wire 1 H" in20|inst31~0_combout $end
$var wire 1 I" in20|inst31~q $end
$var wire 1 J" inst45|inst6~0_combout $end
$var wire 1 K" inst45|inst6~q $end
$var wire 1 L" inst4~0_combout $end
$var wire 1 M" inst45|inst5~0_combout $end
$var wire 1 N" inst45|inst5~q $end
$var wire 1 O" inst45|inst~0_combout $end
$var wire 1 P" inst45|inst~q $end
$var wire 1 Q" in21|inst~0_combout $end
$var wire 1 R" in21|inst~q $end
$var wire 1 S" inst6~0_combout $end
$var wire 1 T" inst21~combout $end
$var wire 1 U" in21|inst29~0_combout $end
$var wire 1 V" in21|inst29~q $end
$var wire 1 W" in21|inst30~0_combout $end
$var wire 1 X" in21|inst30~q $end
$var wire 1 Y" in21|inst39~0_combout $end
$var wire 1 Z" in21|inst31~0_combout $end
$var wire 1 [" in21|inst31~q $end
$var wire 1 \" inst46|inst6~0_combout $end
$var wire 1 ]" inst46|inst6~q $end
$var wire 1 ^" inst5~0_combout $end
$var wire 1 _" inst46|inst5~0_combout $end
$var wire 1 `" inst46|inst5~q $end
$var wire 1 a" inst46|inst~0_combout $end
$var wire 1 b" inst46|inst~q $end
$var wire 1 c" inst5~combout $end
$var wire 1 d" inst1|inst~0_combout $end
$var wire 1 e" inst1|inst~q $end
$var wire 1 f" inst1|inst1~0_combout $end
$var wire 1 g" inst1|inst1~q $end
$var wire 1 h" D1~input_o $end
$var wire 1 i" inst16|inst2|inst7~1_combout $end
$var wire 1 j" inst16|inst14|inst2~combout $end
$var wire 1 k" D2~input_o $end
$var wire 1 l" inst16|inst2|inst12~1_combout $end
$var wire 1 m" inst1|inst2~0_combout $end
$var wire 1 n" inst1|inst2~1_combout $end
$var wire 1 o" inst1|inst2~q $end
$var wire 1 p" inst16|inst13|inst2~combout $end
$var wire 1 q" D3~input_o $end
$var wire 1 r" inst16|inst2|inst17~1_combout $end
$var wire 1 s" inst1|inst2~2_combout $end
$var wire 1 t" inst1|inst4~0_combout $end
$var wire 1 u" inst1|inst4~q $end
$var wire 1 v" inst1|inst3~0_combout $end
$var wire 1 w" inst1|inst3~q $end
$var wire 1 x" inst16|inst12|inst2~combout $end
$var wire 1 y" inst16|inst11|inst4~combout $end
$var wire 1 z" inst16|inst10|inst4~0_combout $end
$var wire 1 {" inst16|inst10|inst4~combout $end
$var wire 1 |" inst16|inst12|inst4~combout $end
$var wire 1 }" inst16|inst|inst3|inst4~combout $end
$var wire 1 ~" inst16|inst4~0_combout $end
$var wire 1 !# inst16|inst1~combout $end
$var wire 1 "# inst16|inst|inst|inst~combout $end
$var wire 1 ## inst16|inst3~combout $end
$var wire 1 $# inst16|inst13|inst4~combout $end
$var wire 1 %# inst16|inst6~combout $end
$var wire 1 &# inst16|inst14|inst4~combout $end
$var wire 1 '# inst15|inst11~0_combout $end
$var wire 1 (# inst16|inst9|inst~combout $end
$var wire 1 )# inst16|inst8~combout $end
$var wire 1 *# inst12|inst22~0_combout $end
$var wire 1 +# inst12|inst11~0_combout $end
$var wire 1 ,# inst12|inst29~0_combout $end
$var wire 1 -# inst16213|inst28~0_combout $end
$var wire 1 .# inst16213|inst27~0_combout $end
$var wire 1 /# inst16213|inst26~0_combout $end
$var wire 1 0# inst16213|inst21~0_combout $end
$var wire 1 1# inst16213|inst18~combout $end
$var wire 1 2# inst16213|inst17~0_combout $end
$var wire 1 3# inst16213|inst14~0_combout $end
$var wire 1 4# inst12|inst12~0_combout $end
$var wire 1 5# inst1762162|inst27~combout $end
$var wire 1 6# inst1762162|inst17~combout $end
$var wire 1 7# inst7|inst28~0_combout $end
$var wire 1 8# inst7|inst27~0_combout $end
$var wire 1 9# inst7|inst26~0_combout $end
$var wire 1 :# inst7|inst21~0_combout $end
$var wire 1 ;# inst7|inst18~combout $end
$var wire 1 <# inst7|inst17~0_combout $end
$var wire 1 =# inst7|inst14~0_combout $end
$var wire 1 ># inst8|inst28~0_combout $end
$var wire 1 ?# inst8|inst27~0_combout $end
$var wire 1 @# inst8|inst26~0_combout $end
$var wire 1 A# inst8|inst21~0_combout $end
$var wire 1 B# inst13|inst18~combout $end
$var wire 1 C# inst8|inst17~0_combout $end
$var wire 1 D# inst8|inst14~0_combout $end
$var wire 1 E# inst2|inst28~0_combout $end
$var wire 1 F# inst2|inst27~0_combout $end
$var wire 1 G# inst2|inst26~0_combout $end
$var wire 1 H# inst2|inst21~0_combout $end
$var wire 1 I# inst9|inst18~combout $end
$var wire 1 J# inst2|inst17~0_combout $end
$var wire 1 K# inst2|inst14~0_combout $end
$var wire 1 L# inst3|inst28~0_combout $end
$var wire 1 M# inst3|inst27~0_combout $end
$var wire 1 N# inst3|inst26~0_combout $end
$var wire 1 O# inst3|inst21~0_combout $end
$var wire 1 P# inst10|inst18~combout $end
$var wire 1 Q# inst3|inst17~0_combout $end
$var wire 1 R# inst3|inst14~0_combout $end
$var wire 1 S# inst15|inst22~0_combout $end
$var wire 1 T# inst16214|inst~2_combout $end
$var wire 1 U# inst15|inst29~0_combout $end
$var wire 1 V# inst15|inst11~2_combout $end
$var wire 1 W# inst16|inst4~combout $end
$var wire 1 X# inst15|inst11~1_combout $end
$var wire 1 Y# inst15|inst11~3_combout $end
$var wire 1 Z# inst16214|inst28~0_combout $end
$var wire 1 [# inst16214|inst28~1_combout $end
$var wire 1 \# inst16214|inst17~0_combout $end
$var wire 1 ]# inst16214|inst27~0_combout $end
$var wire 1 ^# inst16214|inst26~0_combout $end
$var wire 1 _# inst16214|inst21~3_combout $end
$var wire 1 `# inst16214|inst21~2_combout $end
$var wire 1 a# inst16214|inst18~combout $end
$var wire 1 b# inst16214|inst17~combout $end
$var wire 1 c# inst16214|inst14~0_combout $end
$var wire 1 d# inst16214|inst14~combout $end
$var wire 1 e# inst15|inst12~0_combout $end
$var wire 1 f# inst15|inst12~1_combout $end
$var wire 1 g# inst1762163|inst27~combout $end
$var wire 1 h# inst1762163|inst17~combout $end
$upscope $end
$upscope $end
$enddefinitions $end
#0
$dumpvars
0!
0"
0#
0$
0%
1&
1'
0(
0)
1*
1+
0,
0-
0.
1/
10
01
18
17
16
15
14
13
02
1?
1>
1=
1<
1;
1:
09
1F
1E
1D
1C
1B
1A
0@
1M
1L
1K
1J
1I
1H
0G
1T
1S
1R
1Q
1P
1O
0N
1[
1Z
1Y
1X
1W
1V
0U
1b
1a
0`
1_
1^
0]
1\
0i
1h
1g
0f
0e
0d
0c
1p
1o
1n
1m
1l
1k
0j
1w
1v
1u
1t
1s
1r
0q
1~
1}
1|
1{
1z
1y
0x
1'!
1&!
1%!
1$!
1#!
1"!
0!!
0(!
1)!
x*!
1+!
1,!
1-!
0.!
z/!
z0!
01!
12!
13!
04!
05!
06!
17!
18!
19!
1:!
1;!
1<!
0=!
1>!
1?!
1@!
1A!
1B!
1C!
0D!
1E!
1F!
1G!
1H!
1I!
1J!
0K!
1L!
1M!
1N!
1O!
1P!
1Q!
0R!
1S!
1T!
1U!
1V!
1W!
1X!
0Y!
1Z!
1[!
1\!
1]!
1^!
1_!
1`!
0a!
1b!
1c!
0d!
1e!
1f!
0g!
0h!
0i!
0j!
1k!
1l!
0m!
0n!
1o!
1p!
1q!
1r!
1s!
1t!
0u!
1v!
1w!
1x!
1y!
1z!
1{!
0|!
1}!
1~!
1!"
1""
1#"
1$"
0%"
1&"
1'"
1("
1)"
1*"
1+"
0,"
1-"
1."
1/"
00"
11"
02"
13"
04"
05"
06"
07"
08"
09"
1:"
0;"
0<"
0="
0>"
0?"
0@"
1A"
0B"
0C"
0D"
0E"
0F"
0G"
0H"
0I"
0J"
0K"
0L"
0M"
0N"
0O"
0P"
0Q"
0R"
0S"
0T"
0U"
0V"
0W"
0X"
0Y"
0Z"
0["
0\"
0]"
0^"
0_"
0`"
0a"
0b"
0c"
0d"
0e"
0f"
0g"
0h"
1i"
0j"
1k"
0l"
1m"
0n"
0o"
0p"
1q"
0r"
0s"
0t"
0u"
0v"
0w"
0x"
1y"
1z"
1{"
0|"
0}"
1~"
0!#
0"#
1##
0$#
1%#
1&#
1'#
1(#
0)#
0*#
0+#
0,#
0-#
1.#
1/#
10#
11#
12#
13#
04#
15#
16#
07#
18#
19#
1:#
1;#
1<#
1=#
0>#
1?#
1@#
1A#
1B#
1C#
1D#
0E#
1F#
1G#
1H#
1I#
1J#
1K#
0L#
1M#
1N#
1O#
1P#
1Q#
1R#
0S#
0T#
1U#
0V#
1W#
0X#
0Y#
1Z#
1[#
0\#
0]#
1^#
1_#
1`#
0a#
1b#
1c#
1d#
0e#
1f#
0g#
1h#
$end
#10000
1#
14"
15"
1B"
0K#
0H#
0G#
0F#
1C"
0A"
0S!
0}!
0T!
0~!
0U!
0!"
0X!
0$"
0~
0T
0{
0Q
0z
0P
0y
0O
#20000
0#
04"
05"
#30000
1#
14"
15"
1D"
0B"
1K#
0I#
1H#
1G#
1E#
1A"
1R!
1|!
1T!
1~!
1U!
1!"
0V!
0""
1X!
1$"
1~
1T
0|
0R
1{
1Q
1z
1P
1x
1N
#40000
0#
04"
05"
#50000
1#
14"
15"
1B"
1I#
0G#
1E"
0C"
0A"
0T!
0~!
1V!
1""
1|
1R
0z
0P
#60000
0#
04"
05"
#70000
1#
14"
15"
1F"
0D"
0B"
0K#
0H#
1F#
1A"
1S!
1}!
0U!
0!"
0X!
0$"
0~
0T
0{
0Q
1y
1O
#80000
0#
04"
05"
#90000
1#
14"
15"
1B"
1K#
0J#
1H#
1C"
0A"
1U!
1!"
0W!
0#"
1X!
1$"
1~
1T
0}
0S
1{
1Q
#100000
0#
04"
05"
#110000
1#
14"
15"
1D"
0B"
1G"
1G#
1A"
1T!
1~!
1z
1P
#120000
0#
04"
05"
#130000
1#
14"
15"
1B"
1J#
0H#
0G#
0F#
0E#
1H"
0E"
0C"
0A"
0R!
0|!
0S!
0}!
0T!
0~!
0U!
0!"
1W!
1#"
1}
1S
0{
0Q
0z
0P
0y
0O
0x
0N
#140000
0#
04"
05"
#150000
1#
14"
15"
1I"
0F"
0D"
0B"
1H#
1F#
1E#
1G#
1A"
1T!
1~!
1R!
1|!
1S!
1}!
1U!
1!"
1{
1Q
1y
1O
1x
1N
1z
1P
#160000
0*
0#
04"
0:"
05"
0A"
#170000
1#
14"
15"
#180000
0#
04"
05"
#190000
1#
14"
15"
#200000
0#
04"
05"
#210000
1#
14"
15"
#220000
0#
04"
05"
#230000
1#
14"
15"
#240000
0#
04"
05"
#250000
1#
14"
15"
#260000
0#
04"
05"
#270000
1#
14"
15"
#280000
0#
04"
05"
#290000
1#
14"
15"
#300000
0#
04"
05"
#310000
1#
14"
15"
#320000
1!
0#
04"
16"
05"
17"
#330000
1#
14"
15"
18"
1;"
1d"
#340000
0#
04"
05"
#350000
1#
14"
15"
1e"
19"
0_#
0(#
0;"
03#
00#
0/#
0.#
1f"
0d"
07!
08!
09!
0<!
08
05
04
03
1)#
0f"
1d"
15!
1-
1a#
0^#
0b!
1d!
1`
0^
#360000
0#
04"
05"
#370000
1#
14"
15"
#380000
0#
04"
05"
#390000
1#
14"
15"
#400000
0#
04"
05"
#410000
1#
14"
15"
#420000
0#
04"
05"
#430000
1#
14"
15"
#440000
0#
04"
05"
#450000
1#
14"
15"
#460000
0#
04"
05"
#470000
1#
14"
15"
#480000
1"
0!
0#
04"
06"
1="
05"
07"
#490000
1#
14"
15"
1>"
08"
1@"
1T"
1Q"
#500000
0#
04"
05"
#510000
1#
14"
15"
1R"
1?"
09"
1S"
0@"
0=#
0:#
09#
08#
0Q"
0E!
0o!
0F!
0p!
0G!
0q!
0J!
0t!
0T"
0S"
0p
0F
0m
0C
0l
0B
0k
0A
1U"
1Q"
0U"
#520000
0#
04"
05"
#530000
1#
14"
15"
#540000
0#
04"
05"
#550000
1#
14"
15"
#560000
0#
04"
05"
#570000
1#
14"
15"
#580000
0#
04"
05"
#590000
1#
14"
15"
#600000
0#
04"
05"
#610000
1#
14"
15"
#620000
0#
04"
05"
#630000
1#
14"
15"
#640000
0"
0#
04"
0="
05"
#650000
1#
14"
15"
0>"
#660000
0#
04"
05"
#670000
1#
14"
15"
0?"
#680000
0#
04"
05"
#690000
1#
14"
15"
#700000
0#
04"
05"
#710000
1#
14"
15"
#720000
0#
04"
05"
#730000
1#
14"
15"
#740000
0#
04"
05"
#750000
1#
14"
15"
#760000
0#
04"
05"
#770000
1#
14"
15"
#780000
0#
04"
05"
#790000
1#
14"
15"
#800000
1!
0#
04"
16"
05"
17"
#810000
1#
14"
15"
18"
1;"
1f"
0d"
#820000
0#
04"
05"
#830000
1#
14"
15"
1g"
0e"
19"
1,#
0&#
1_#
1(#
0;"
13#
10#
1/#
1.#
1d"
17!
18!
19!
1<!
0U#
1S#
0'#
18
15
14
13
01#
0.#
1-#
0)#
0d"
05!
16!
07!
0:!
14!
0c#
0_#
1\#
0Z#
1T#
1.
06
03
12
0-
1]#
1a!
1]
0d#
0`#
0c!
0f!
0b
0_
#840000
0#
04"
05"
#850000
1#
14"
15"
#860000
0#
04"
05"
#870000
1#
14"
15"
#880000
0#
04"
05"
#890000
1#
14"
15"
#900000
0#
04"
05"
#910000
1#
14"
15"
#920000
0#
04"
05"
#930000
1#
14"
15"
#940000
0#
04"
05"
#950000
1#
14"
15"
#960000
0!
0#
04"
06"
05"
07"
#970000
1#
14"
15"
08"
#980000
0#
04"
05"
#990000
1#
14"
15"
09"
#1000000
0#
04"
05"
#1010000
1#
14"
15"
#1020000
0#
04"
05"
#1030000
1#
14"
15"
#1040000
0#
04"
05"
#1050000
1#
14"
15"
#1060000
0#
04"
05"
#1070000
1#
14"
15"
#1080000
0#
04"
05"
#1090000
1#
14"
15"
#1100000
0#
04"
05"
#1110000
1#
14"
15"
#1120000
0#
04"
05"
#1130000
1#
14"
15"
#1140000
0#
04"
05"
#1150000
1#
14"
15"
#1160000
0#
04"
05"
#1170000
1#
14"
15"
#1180000
0#
04"
05"
#1190000
1#
14"
15"
#1200000
0#
04"
05"
#1210000
1#
14"
15"
#1220000
0#
04"
05"
#1230000
1#
14"
15"
#1240000
0#
04"
05"
#1250000
1#
14"
15"
#1260000
0#
04"
05"
#1270000
1#
14"
15"
#1280000
0+
1"
0#
04"
1="
0-"
0."
05"
#1290000
1#
14"
15"
1>"
1@"
1T"
1S"
0Q"
1U"
#1300000
0#
04"
05"
#1310000
1#
14"
15"
1V"
0R"
1?"
0S"
0@"
1=#
0;#
1:#
19#
17#
1W"
0U"
1Q"
1D!
1n!
1F!
1p!
1G!
1q!
0H!
0r!
1J!
1t!
0T"
1p
1F
0n
0D
1m
1C
1l
1B
1j
1@
0W"
1U"
0Q"
#1320000
0#
04"
05"
#1330000
1#
14"
15"
#1340000
0#
04"
05"
#1350000
1#
14"
15"
#1360000
0#
04"
05"
#1370000
1#
14"
15"
#1380000
0#
04"
05"
#1390000
1#
14"
15"
#1400000
0#
04"
05"
#1410000
1#
14"
15"
#1420000
0#
04"
05"
#1430000
1#
14"
15"
#1440000
1!
0"
0#
04"
0="
16"
05"
17"
#1450000
1#
14"
15"
0>"
18"
1;"
1d"
#1460000
0#
04"
05"
#1470000
1#
14"
15"
1e"
0?"
19"
1_#
0(#
1s"
0m"
0;"
11#
0/#
0f"
0d"
08!
1:!
1c#
0s"
16
04
1`#
0b#
1)#
1f"
1d"
15!
0e!
1c!
1_
0a
1-
1d#
1f!
1b
#1480000
0#
04"
05"
#1490000
1#
14"
15"
#1500000
0#
04"
05"
#1510000
1#
14"
15"
#1520000
0#
04"
05"
#1530000
1#
14"
15"
#1540000
0#
04"
05"
#1550000
1#
14"
15"
#1560000
0#
04"
05"
#1570000
1#
14"
15"
#1580000
0#
04"
05"
#1590000
1#
14"
15"
#1600000
0!
0#
04"
06"
05"
07"
#1610000
1#
14"
15"
08"
#1620000
0#
04"
05"
#1630000
1#
14"
15"
09"
#1640000
0#
04"
05"
#1650000
1#
14"
15"
#1660000
0#
04"
05"
#1670000
1#
14"
15"
#1680000
0#
04"
05"
#1690000
1#
14"
15"
#1700000
0#
04"
05"
#1710000
1#
14"
15"
#1720000
0#
04"
05"
#1730000
1#
14"
15"
#1740000
0#
04"
05"
#1750000
1#
14"
15"
#1760000
0#
04"
05"
#1770000
1#
14"
15"
#1780000
0#
04"
05"
#1790000
1#
14"
15"
#1800000
0#
04"
05"
#1810000
1#
14"
15"
#1820000
0#
04"
05"
#1830000
1#
14"
15"
#1840000
0#
04"
05"
#1850000
1#
14"
15"
#1860000
0#
04"
05"
#1870000
1#
14"
15"
#1880000
0#
04"
05"
#1890000
1#
14"
15"
#1900000
0#
04"
05"
#1910000
1#
14"
15"
#1920000
1"
0#
04"
1="
05"
#1930000
1#
14"
15"
1>"
1@"
1T"
1Q"
#1940000
0#
04"
05"
#1950000
1#
14"
15"
1R"
1?"
1S"
0@"
1;#
09#
0Q"
0F!
0p!
1H!
1r!
0T"
0S"
1n
1D
0l
0B
1W"
0U"
1Q"
0W"
1U"
#1960000
0#
04"
05"
#1970000
1#
14"
15"
#1980000
0#
04"
05"
#1990000
1#
14"
15"
#2000000
0#
04"
05"
#2010000
1#
14"
15"
#2020000
0#
04"
05"
#2030000
1#
14"
15"
#2040000
0#
04"
05"
#2050000
1#
14"
15"
#2060000
0#
04"
05"
#2070000
1#
14"
15"
#2080000
0#
04"
05"
#2090000
1#
14"
15"
#2100000
0#
04"
05"
#2110000
1#
14"
15"
#2120000
0#
04"
05"
#2130000
1#
14"
15"
#2140000
0#
04"
05"
#2150000
1#
14"
15"
#2160000
0#
04"
05"
#2170000
1#
14"
15"
#2180000
0#
04"
05"
#2190000
1#
14"
15"
#2200000
0#
04"
05"
#2210000
1#
14"
15"
#2220000
0#
04"
05"
#2230000
1#
14"
15"
#2240000
1!
0"
0#
04"
0="
16"
05"
17"
#2250000
1#
14"
15"
0>"
18"
1;"
1s"
1n"
0f"
0d"
#2260000
0#
04"
05"
#2270000
1#
14"
15"
1o"
0g"
0e"
0?"
19"
0,#
1*#
1$#
1p"
1&#
0s"
1m"
0_#
1(#
0;"
1v"
0n"
01#
1/#
1d"
18!
0:!
1e#
1X#
0S#
1|"
1x"
1'#
0c#
06
14
03#
11#
00#
0/#
1.#
0%#
0v"
1n"
0`#
1b#
0)#
0d"
05!
1e!
0c!
03!
17!
08!
09!
1:!
0<!
04!
0f#
1Y#
1_#
0\#
0T#
1"#
0y"
0.
08
16
05
04
13
0/
0_
1a
0-
1^#
1b!
1i!
0X#
1}"
1e
1^
1g#
1`#
0##
02!
1c!
1h!
1j!
1m!
0Y#
1V#
1U#
1S#
1i
1f
1d
1_
00
1!#
11!
1f#
1c#
0_#
1\#
1Z#
1T#
11
0d#
0]#
0[#
0b#
0e!
0`!
0a!
0f!
0i!
0e
0b
0]
0\
0a
0g#
1d#
1]#
1[#
1`!
1a!
1f!
0h!
0j!
0m!
0i
0f
0d
1b
1]
1\
#2280000
0#
04"
05"
#2290000
1#
14"
15"
#2300000
0#
04"
05"
#2310000
1#
14"
15"
#2320000
0#
04"
05"
#2330000
1#
14"
15"
#2340000
0#
04"
05"
#2350000
1#
14"
15"
#2360000
0#
04"
05"
#2370000
1#
14"
15"
#2380000
0#
04"
05"
#2390000
1#
14"
15"
#2400000
0!
0#
04"
06"
05"
07"
#2410000
1#
14"
15"
08"
#2420000
0#
04"
05"
#2430000
1#
14"
15"
09"
#2440000
0#
04"
05"
#2450000
1#
14"
15"
#2460000
0#
04"
05"
#2470000
1#
14"
15"
#2480000
0#
04"
05"
#2490000
1#
14"
15"
#2500000
0#
04"
05"
#2510000
1#
14"
15"
#2520000
0#
04"
05"
#2530000
1#
14"
15"
#2540000
0#
04"
05"
#2550000
1#
14"
15"
#2560000
0#
04"
05"
#2570000
1#
14"
15"
#2580000
0#
04"
05"
#2590000
1#
14"
15"
#2600000
0#
04"
05"
#2610000
1#
14"
15"
#2620000
0#
04"
05"
#2630000
1#
14"
15"
#2640000
0#
04"
05"
